<?xml version="1.0" encoding="UTF-8"?>
<svg xmlns="http://www.w3.org/2000/svg" xmlns:xlink="http://www.w3.org/1999/xlink" width="391.464pt" height="257.559pt" viewBox="0 0 391.464 257.559" version="1.1">
<defs>
<g>
<symbol overflow="visible" id="glyph0-0">
<path style="stroke:none;" d=""/>
</symbol>
<symbol overflow="visible" id="glyph0-1">
<path style="stroke:none;" d="M 0.84375 -4.578125 C 1 -5.28125 1.296875 -6.125 2.21875 -6.125 C 3.046875 -6.125 3.65625 -5.4375 3.65625 -4.59375 C 3.65625 -3.59375 2.8125 -2.875 2.140625 -2.265625 C 1.875 -2.03125 1.625 -1.78125 1.359375 -1.515625 L 0.59375 -0.75 C 0.53125 -0.671875 0.5 -0.640625 0.5 -0.53125 L 0.5 -0.015625 L 4.46875 -0.015625 L 4.46875 -0.71875 L 1.21875 -0.703125 C 1.765625 -1.203125 2.265625 -1.71875 2.828125 -2.21875 C 3.5625 -2.859375 4.46875 -3.515625 4.46875 -4.640625 C 4.46875 -5.265625 4.203125 -5.90625 3.734375 -6.296875 C 3.375 -6.59375 2.9375 -6.734375 2.46875 -6.765625 L 2.359375 -6.765625 C 1.46875 -6.765625 0.875 -6.3125 0.484375 -5.328125 C 0.453125 -5.28125 0.421875 -5.21875 0.421875 -5.15625 L 0.421875 -5.140625 C 0.4375 -5.0625 0.515625 -5 0.546875 -4.953125 C 0.640625 -4.828125 0.734375 -4.6875 0.84375 -4.578125 Z M 0.84375 -4.578125 "/>
</symbol>
<symbol overflow="visible" id="glyph0-2">
<path style="stroke:none;" d="M 0.90625 -5.125 C 0.96875 -5.21875 1 -5.3125 1.0625 -5.40625 C 1.375 -5.859375 1.890625 -6.1875 2.46875 -6.1875 C 3 -6.1875 3.484375 -5.796875 3.484375 -5.234375 C 3.484375 -4.59375 3 -4.03125 2.40625 -3.90625 C 2.15625 -3.84375 1.890625 -3.859375 1.65625 -3.84375 L 1.65625 -3.234375 L 2.25 -3.234375 C 2.484375 -3.234375 2.703125 -3.234375 2.90625 -3.140625 C 3.421875 -2.90625 3.671875 -2.359375 3.671875 -1.8125 C 3.671875 -1.09375 3.21875 -0.40625 2.421875 -0.40625 C 1.640625 -0.40625 1 -0.8125 0.53125 -1.421875 C 0.515625 -1.375 0.5 -1.3125 0.484375 -1.25 L 0.453125 -1 C 0.4375 -0.953125 0.421875 -0.90625 0.421875 -0.859375 L 0.421875 -0.828125 C 0.71875 -0.203125 1.8125 0.203125 2.453125 0.203125 C 3.59375 0.203125 4.5625 -0.703125 4.5625 -1.796875 C 4.5625 -2.5 4.109375 -3.078125 3.515625 -3.40625 C 3.40625 -3.453125 3.296875 -3.515625 3.171875 -3.53125 C 3.796875 -3.890625 4.28125 -4.453125 4.28125 -5.25 C 4.28125 -6.234375 3.3125 -6.75 2.46875 -6.75 C 1.703125 -6.75 1.0625 -6.40625 0.609375 -5.765625 C 0.59375 -5.734375 0.5625 -5.703125 0.5625 -5.65625 C 0.5625 -5.5625 0.796875 -5.296875 0.90625 -5.125 Z M 0.90625 -5.125 "/>
</symbol>
</g>
</defs>
<g id="surface1">
<path style="fill-rule:nonzero;fill:rgb(0%,0%,0%);fill-opacity:1;stroke-width:0.79701;stroke-linecap:butt;stroke-linejoin:miter;stroke:rgb(0%,0%,0%);stroke-opacity:1;stroke-miterlimit:10;" d="M 12.451594 -311.813437 C 12.451594 -304.938437 6.877375 -299.360312 -0.00153125 -299.360312 C -6.876531 -299.360312 -12.454656 -304.938437 -12.454656 -311.813437 C -12.454656 -318.692344 -6.876531 -324.266562 -0.00153125 -324.266562 C 6.877375 -324.266562 12.451594 -318.692344 12.451594 -311.813437 Z M 12.451594 -311.813437 " transform="matrix(1,0,0,-1,195.732,-293.29)"/>
<path style="fill-rule:nonzero;fill:rgb(0%,0%,0%);fill-opacity:1;stroke-width:0.79701;stroke-linecap:butt;stroke-linejoin:miter;stroke:rgb(0%,0%,0%);stroke-opacity:1;stroke-miterlimit:10;" d="M -72.587469 -368.50875 C -72.587469 -361.629844 -78.161687 -356.055625 -85.040594 -356.055625 C -91.9195 -356.055625 -97.493719 -361.629844 -97.493719 -368.50875 C -97.493719 -375.387656 -91.9195 -380.961875 -85.040594 -380.961875 C -78.161687 -380.961875 -72.587469 -375.387656 -72.587469 -368.50875 Z M -72.587469 -368.50875 " transform="matrix(1,0,0,-1,195.732,-293.29)"/>
<path style="fill:none;stroke-width:0.79701;stroke-linecap:butt;stroke-linejoin:miter;stroke:rgb(0%,0%,0%);stroke-opacity:1;stroke-miterlimit:10;" d="M -10.692937 -318.942344 L -74.349187 -361.379844 " transform="matrix(1,0,0,-1,195.732,-293.29)"/>
<path style="fill-rule:nonzero;fill:rgb(92.156982%,4.705811%,0%);fill-opacity:1;stroke-width:0.79701;stroke-linecap:butt;stroke-linejoin:miter;stroke:rgb(0%,0%,0%);stroke-opacity:1;stroke-miterlimit:10;" d="M -115.107 -425.204062 C -115.107 -418.325156 -120.681219 -412.747031 -127.560125 -412.747031 C -134.439031 -412.747031 -140.01325 -418.325156 -140.01325 -425.204062 C -140.01325 -432.079062 -134.439031 -437.657187 -127.560125 -437.657187 C -120.681219 -437.657187 -115.107 -432.079062 -115.107 -425.204062 Z M -115.107 -425.204062 " transform="matrix(1,0,0,-1,195.732,-293.29)"/>
<path style="fill:none;stroke-width:0.79701;stroke-linecap:butt;stroke-linejoin:miter;stroke:rgb(0%,0%,0%);stroke-opacity:1;stroke-miterlimit:10;" d="M -92.751531 -378.79 L -119.849187 -414.922812 " transform="matrix(1,0,0,-1,195.732,-293.29)"/>
<path style="fill-rule:nonzero;fill:rgb(0%,0%,0%);fill-opacity:1;stroke-width:0.79701;stroke-linecap:butt;stroke-linejoin:miter;stroke:rgb(0%,0%,0%);stroke-opacity:1;stroke-miterlimit:10;" d="M -160.88825 -486.875937 L -150.927312 -486.875937 L -150.927312 -476.915 L -160.88825 -476.915 Z M -160.88825 -486.875937 " transform="matrix(1,0,0,-1,195.732,-293.29)"/>
<path style="fill:none;stroke-width:0.79701;stroke-linecap:butt;stroke-linejoin:miter;stroke:rgb(0%,0%,0%);stroke-opacity:1;stroke-miterlimit:10;" d="M -133.306219 -436.69625 L -153.220281 -476.516562 " transform="matrix(1,0,0,-1,195.732,-293.29)"/>
<path style="fill-rule:nonzero;fill:rgb(0%,0%,0%);fill-opacity:1;stroke-width:0.79701;stroke-linecap:butt;stroke-linejoin:miter;stroke:rgb(0%,0%,0%);stroke-opacity:1;stroke-miterlimit:10;" d="M -104.196844 -486.875937 L -94.232 -486.875937 L -94.232 -476.915 L -104.196844 -476.915 Z M -104.196844 -486.875937 " transform="matrix(1,0,0,-1,195.732,-293.29)"/>
<path style="fill:none;stroke-width:0.79701;stroke-linecap:butt;stroke-linejoin:miter;stroke:rgb(0%,0%,0%);stroke-opacity:1;stroke-miterlimit:10;" d="M -121.814031 -436.69625 L -101.903875 -476.516562 " transform="matrix(1,0,0,-1,195.732,-293.29)"/>
<path style="fill-rule:nonzero;fill:rgb(0%,0%,0%);fill-opacity:1;stroke-width:0.79701;stroke-linecap:butt;stroke-linejoin:miter;stroke:rgb(0%,0%,0%);stroke-opacity:1;stroke-miterlimit:10;" d="M -30.067937 -425.204062 C -30.067937 -418.325156 -35.642156 -412.747031 -42.521062 -412.747031 C -49.399969 -412.747031 -54.974187 -418.325156 -54.974187 -425.204062 C -54.974187 -432.079062 -49.399969 -437.657187 -42.521062 -437.657187 C -35.642156 -437.657187 -30.067937 -432.079062 -30.067937 -425.204062 Z M -30.067937 -425.204062 " transform="matrix(1,0,0,-1,195.732,-293.29)"/>
<path style="fill:none;stroke-width:0.79701;stroke-linecap:butt;stroke-linejoin:miter;stroke:rgb(0%,0%,0%);stroke-opacity:1;stroke-miterlimit:10;" d="M -77.321844 -378.786094 L -50.232 -414.922812 " transform="matrix(1,0,0,-1,195.732,-293.29)"/>
<path style="fill-rule:nonzero;fill:rgb(0%,0%,0%);fill-opacity:1;stroke-width:0.79701;stroke-linecap:butt;stroke-linejoin:miter;stroke:rgb(0%,0%,0%);stroke-opacity:1;stroke-miterlimit:10;" d="M -75.849187 -486.875937 L -65.884344 -486.875937 L -65.884344 -476.915 L -75.849187 -476.915 Z M -75.849187 -486.875937 " transform="matrix(1,0,0,-1,195.732,-293.29)"/>
<path style="fill:none;stroke-width:0.79701;stroke-linecap:butt;stroke-linejoin:miter;stroke:rgb(0%,0%,0%);stroke-opacity:1;stroke-miterlimit:10;" d="M -48.267156 -436.69625 L -68.177312 -476.516562 " transform="matrix(1,0,0,-1,195.732,-293.29)"/>
<path style="fill-rule:nonzero;fill:rgb(0%,0%,0%);fill-opacity:1;stroke-width:0.79701;stroke-linecap:butt;stroke-linejoin:miter;stroke:rgb(0%,0%,0%);stroke-opacity:1;stroke-miterlimit:10;" d="M -19.153875 -486.875937 L -9.192937 -486.875937 L -9.192937 -476.915 L -19.153875 -476.915 Z M -19.153875 -486.875937 " transform="matrix(1,0,0,-1,195.732,-293.29)"/>
<path style="fill:none;stroke-width:0.79701;stroke-linecap:butt;stroke-linejoin:miter;stroke:rgb(0%,0%,0%);stroke-opacity:1;stroke-miterlimit:10;" d="M -36.771062 -436.69625 L -16.860906 -476.516562 " transform="matrix(1,0,0,-1,195.732,-293.29)"/>
<path style="fill-rule:nonzero;fill:rgb(0%,0%,0%);fill-opacity:1;stroke-width:0.79701;stroke-linecap:butt;stroke-linejoin:miter;stroke:rgb(0%,0%,0%);stroke-opacity:1;stroke-miterlimit:10;" d="M 97.494563 -368.50875 C 97.494563 -361.629844 91.920344 -356.055625 85.041438 -356.055625 C 78.162531 -356.055625 72.588313 -361.629844 72.588313 -368.50875 C 72.588313 -375.387656 78.162531 -380.961875 85.041438 -380.961875 C 91.920344 -380.961875 97.494563 -375.387656 97.494563 -368.50875 Z M 97.494563 -368.50875 " transform="matrix(1,0,0,-1,195.732,-293.29)"/>
<path style="fill:none;stroke-width:0.79701;stroke-linecap:butt;stroke-linejoin:miter;stroke:rgb(0%,0%,0%);stroke-opacity:1;stroke-miterlimit:10;" d="M 10.693781 -318.942344 L 74.346125 -361.379844 " transform="matrix(1,0,0,-1,195.732,-293.29)"/>
<path style="fill-rule:nonzero;fill:rgb(0%,0%,0%);fill-opacity:1;stroke-width:0.79701;stroke-linecap:butt;stroke-linejoin:miter;stroke:rgb(0%,0%,0%);stroke-opacity:1;stroke-miterlimit:10;" d="M 37.537531 -430.184531 L 47.502375 -430.184531 L 47.502375 -420.219687 L 37.537531 -420.219687 Z M 37.537531 -430.184531 " transform="matrix(1,0,0,-1,195.732,-293.29)"/>
<path style="fill:none;stroke-width:0.79701;stroke-linecap:butt;stroke-linejoin:miter;stroke:rgb(0%,0%,0%);stroke-opacity:1;stroke-miterlimit:10;" d="M 77.3305 -378.79 L 46.553156 -419.82125 " transform="matrix(1,0,0,-1,195.732,-293.29)"/>
<path style="fill-rule:nonzero;fill:rgb(92.156982%,4.705811%,0%);fill-opacity:1;stroke-width:0.79701;stroke-linecap:butt;stroke-linejoin:miter;stroke:rgb(0%,0%,0%);stroke-opacity:1;stroke-miterlimit:10;" d="M 140.014094 -425.204062 C 140.014094 -418.325156 134.439875 -412.747031 127.560969 -412.747031 C 120.682063 -412.747031 115.107844 -418.325156 115.107844 -425.204062 C 115.107844 -432.079062 120.682063 -437.657187 127.560969 -437.657187 C 134.439875 -437.657187 140.014094 -432.079062 140.014094 -425.204062 Z M 140.014094 -425.204062 " transform="matrix(1,0,0,-1,195.732,-293.29)"/>
<path style="fill:none;stroke-width:0.79701;stroke-linecap:butt;stroke-linejoin:miter;stroke:rgb(0%,0%,0%);stroke-opacity:1;stroke-miterlimit:10;" d="M 92.756281 -378.786094 L 119.850031 -414.922812 " transform="matrix(1,0,0,-1,195.732,-293.29)"/>
<path style="fill-rule:nonzero;fill:rgb(92.156982%,4.705811%,0%);fill-opacity:1;stroke-width:0.79701;stroke-linecap:butt;stroke-linejoin:miter;stroke:rgb(0%,0%,0%);stroke-opacity:1;stroke-miterlimit:10;" d="M 111.666438 -481.895469 C 111.666438 -475.016562 106.092219 -469.442344 99.213313 -469.442344 C 92.334406 -469.442344 86.760188 -475.016562 86.760188 -481.895469 C 86.760188 -488.774375 92.334406 -494.348594 99.213313 -494.348594 C 106.092219 -494.348594 111.666438 -488.774375 111.666438 -481.895469 Z M 111.666438 -481.895469 " transform="matrix(1,0,0,-1,195.732,-293.29)"/>
<path style="fill:none;stroke-width:0.79701;stroke-linecap:butt;stroke-linejoin:miter;stroke:rgb(0%,0%,0%);stroke-opacity:1;stroke-miterlimit:10;" d="M 121.814875 -436.69625 L 104.959406 -470.403281 " transform="matrix(1,0,0,-1,195.732,-293.29)"/>
<path style="fill-rule:nonzero;fill:rgb(0%,0%,0%);fill-opacity:1;stroke-width:0.79701;stroke-linecap:butt;stroke-linejoin:miter;stroke:rgb(0%,0%,0%);stroke-opacity:1;stroke-miterlimit:10;" d="M 72.971125 -543.57125 L 82.935969 -543.57125 L 82.935969 -533.606406 L 72.971125 -533.606406 Z M 72.971125 -543.57125 " transform="matrix(1,0,0,-1,195.732,-293.29)"/>
<path style="fill:none;stroke-width:0.79701;stroke-linecap:butt;stroke-linejoin:miter;stroke:rgb(0%,0%,0%);stroke-opacity:1;stroke-miterlimit:10;" d="M 94.701594 -493.930625 L 79.971125 -533.207969 " transform="matrix(1,0,0,-1,195.732,-293.29)"/>
<path style="fill-rule:nonzero;fill:rgb(0%,0%,0%);fill-opacity:1;stroke-width:0.79701;stroke-linecap:butt;stroke-linejoin:miter;stroke:rgb(0%,0%,0%);stroke-opacity:1;stroke-miterlimit:10;" d="M 115.494563 -543.57125 L 125.4555 -543.57125 L 125.4555 -533.606406 L 115.494563 -533.606406 Z M 115.494563 -543.57125 " transform="matrix(1,0,0,-1,195.732,-293.29)"/>
<path style="fill:none;stroke-width:0.79701;stroke-linecap:butt;stroke-linejoin:miter;stroke:rgb(0%,0%,0%);stroke-opacity:1;stroke-miterlimit:10;" d="M 103.725031 -493.930625 L 118.459406 -533.207969 " transform="matrix(1,0,0,-1,195.732,-293.29)"/>
<path style="fill-rule:nonzero;fill:rgb(0%,0%,0%);fill-opacity:1;stroke-width:0.79701;stroke-linecap:butt;stroke-linejoin:miter;stroke:rgb(0%,0%,0%);stroke-opacity:1;stroke-miterlimit:10;" d="M 150.92425 -486.875937 L 160.889094 -486.875937 L 160.889094 -476.915 L 150.92425 -476.915 Z M 150.92425 -486.875937 " transform="matrix(1,0,0,-1,195.732,-293.29)"/>
<path style="fill:none;stroke-width:0.79701;stroke-linecap:butt;stroke-linejoin:miter;stroke:rgb(0%,0%,0%);stroke-opacity:1;stroke-miterlimit:10;" d="M 133.307063 -436.69625 L 153.217219 -476.516562 " transform="matrix(1,0,0,-1,195.732,-293.29)"/>
<g style="fill:rgb(0%,0%,0%);fill-opacity:1;">
  <use xlink:href="#glyph0-1" x="8.99" y="203.215"/>
</g>
<g style="fill:rgb(0%,0%,0%);fill-opacity:1;">
  <use xlink:href="#glyph0-1" x="65.683" y="203.215"/>
</g>
<g style="fill:rgb(0%,0%,0%);fill-opacity:1;">
  <use xlink:href="#glyph0-2" x="150.722" y="203.215"/>
</g>
<g style="fill:rgb(0%,0%,0%);fill-opacity:1;">
  <use xlink:href="#glyph0-2" x="207.415" y="203.215"/>
</g>
<g style="fill:rgb(0%,0%,0%);fill-opacity:1;">
  <use xlink:href="#glyph0-1" x="213.084" y="146.522"/>
</g>
<g style="fill:rgb(0%,0%,0%);fill-opacity:1;">
  <use xlink:href="#glyph0-2" x="242.848" y="248.569"/>
</g>
<g style="fill:rgb(0%,0%,0%);fill-opacity:1;">
  <use xlink:href="#glyph0-2" x="342.061" y="248.569"/>
</g>
<g style="fill:rgb(0%,0%,0%);fill-opacity:1;">
  <use xlink:href="#glyph0-1" x="377.494" y="203.215"/>
</g>
</g>
</svg>
