<?xml version="1.0" encoding="UTF-8"?>
<svg xmlns="http://www.w3.org/2000/svg" xmlns:xlink="http://www.w3.org/1999/xlink" width="306.425pt" height="122.263pt" viewBox="0 0 306.425 122.263" version="1.1">
<defs>
<g>
<symbol overflow="visible" id="glyph0-0">
<path style="stroke:none;" d=""/>
</symbol>
<symbol overflow="visible" id="glyph0-1">
<path style="stroke:none;" d="M 4.578125 -3.1875 C 4.578125 -3.984375 4.53125 -4.78125 4.1875 -5.515625 C 3.734375 -6.484375 2.90625 -6.640625 2.5 -6.640625 C 1.890625 -6.640625 1.171875 -6.375 0.75 -5.453125 C 0.4375 -4.765625 0.390625 -3.984375 0.390625 -3.1875 C 0.390625 -2.4375 0.421875 -1.546875 0.84375 -0.78125 C 1.265625 0.015625 2 0.21875 2.484375 0.21875 C 3.015625 0.21875 3.78125 0.015625 4.21875 -0.9375 C 4.53125 -1.625 4.578125 -2.40625 4.578125 -3.1875 Z M 2.484375 0 C 2.09375 0 1.5 -0.25 1.328125 -1.203125 C 1.21875 -1.796875 1.21875 -2.71875 1.21875 -3.3125 C 1.21875 -3.953125 1.21875 -4.609375 1.296875 -5.140625 C 1.484375 -6.328125 2.234375 -6.421875 2.484375 -6.421875 C 2.8125 -6.421875 3.46875 -6.234375 3.65625 -5.25 C 3.765625 -4.6875 3.765625 -3.9375 3.765625 -3.3125 C 3.765625 -2.5625 3.765625 -1.890625 3.65625 -1.25 C 3.5 -0.296875 2.9375 0 2.484375 0 Z M 2.484375 0 "/>
</symbol>
<symbol overflow="visible" id="glyph0-2">
<path style="stroke:none;" d="M 2.9375 -6.375 C 2.9375 -6.625 2.9375 -6.640625 2.703125 -6.640625 C 2.078125 -6 1.203125 -6 0.890625 -6 L 0.890625 -5.6875 C 1.09375 -5.6875 1.671875 -5.6875 2.1875 -5.953125 L 2.1875 -0.78125 C 2.1875 -0.421875 2.15625 -0.3125 1.265625 -0.3125 L 0.953125 -0.3125 L 0.953125 0 C 1.296875 -0.03125 2.15625 -0.03125 2.5625 -0.03125 C 2.953125 -0.03125 3.828125 -0.03125 4.171875 0 L 4.171875 -0.3125 L 3.859375 -0.3125 C 2.953125 -0.3125 2.9375 -0.421875 2.9375 -0.78125 Z M 2.9375 -6.375 "/>
</symbol>
<symbol overflow="visible" id="glyph0-3">
<path style="stroke:none;" d="M 1.265625 -0.765625 L 2.328125 -1.796875 C 3.875 -3.171875 4.46875 -3.703125 4.46875 -4.703125 C 4.46875 -5.84375 3.578125 -6.640625 2.359375 -6.640625 C 1.234375 -6.640625 0.5 -5.71875 0.5 -4.828125 C 0.5 -4.28125 1 -4.28125 1.03125 -4.28125 C 1.203125 -4.28125 1.546875 -4.390625 1.546875 -4.8125 C 1.546875 -5.0625 1.359375 -5.328125 1.015625 -5.328125 C 0.9375 -5.328125 0.921875 -5.328125 0.890625 -5.3125 C 1.109375 -5.96875 1.65625 -6.328125 2.234375 -6.328125 C 3.140625 -6.328125 3.5625 -5.515625 3.5625 -4.703125 C 3.5625 -3.90625 3.078125 -3.125 2.515625 -2.5 L 0.609375 -0.375 C 0.5 -0.265625 0.5 -0.234375 0.5 0 L 4.203125 0 L 4.46875 -1.734375 L 4.234375 -1.734375 C 4.171875 -1.4375 4.109375 -1 4 -0.84375 C 3.9375 -0.765625 3.28125 -0.765625 3.0625 -0.765625 Z M 1.265625 -0.765625 "/>
</symbol>
<symbol overflow="visible" id="glyph1-0">
<path style="stroke:none;" d="M 1.25 -5.6875 L 1.484375 -5.3125 C 1.515625 -5.234375 1.578125 -5.203125 1.671875 -5.203125 C 1.703125 -5.203125 1.75 -5.21875 1.796875 -5.25 C 1.828125 -5.28125 1.890625 -5.3125 1.953125 -5.34375 C 2.03125 -5.375 2.109375 -5.40625 2.203125 -5.4375 C 2.296875 -5.46875 2.40625 -5.484375 2.546875 -5.484375 C 2.734375 -5.484375 2.890625 -5.4375 3.015625 -5.34375 C 3.125 -5.234375 3.1875 -5.109375 3.1875 -4.9375 C 3.1875 -4.796875 3.171875 -4.6875 3.109375 -4.59375 C 3.0625 -4.5 2.984375 -4.40625 2.90625 -4.328125 C 2.828125 -4.25 2.75 -4.1875 2.65625 -4.109375 C 2.5625 -4.046875 2.484375 -3.984375 2.40625 -3.90625 C 2.328125 -3.84375 2.265625 -3.765625 2.234375 -3.671875 C 2.1875 -3.59375 2.171875 -3.5 2.1875 -3.375 L 2.25 -2.796875 L 2.84375 -2.796875 L 2.9375 -3.3125 C 2.953125 -3.390625 2.984375 -3.46875 3.046875 -3.53125 C 3.09375 -3.59375 3.171875 -3.65625 3.25 -3.71875 C 3.328125 -3.78125 3.421875 -3.84375 3.5 -3.921875 C 3.59375 -3.984375 3.671875 -4.078125 3.75 -4.171875 C 3.828125 -4.265625 3.890625 -4.375 3.9375 -4.515625 C 3.984375 -4.65625 4.015625 -4.8125 4.015625 -4.984375 C 4.015625 -5.171875 3.984375 -5.34375 3.90625 -5.5 C 3.84375 -5.640625 3.75 -5.78125 3.625 -5.875 C 3.5 -5.984375 3.359375 -6.078125 3.1875 -6.125 C 3.015625 -6.1875 2.828125 -6.21875 2.609375 -6.21875 C 2.46875 -6.21875 2.328125 -6.203125 2.1875 -6.171875 C 2.0625 -6.140625 1.9375 -6.109375 1.828125 -6.0625 C 1.703125 -6.015625 1.609375 -5.953125 1.515625 -5.890625 C 1.421875 -5.828125 1.328125 -5.765625 1.25 -5.6875 Z M 1.96875 -1.453125 C 1.96875 -1.296875 2.03125 -1.171875 2.125 -1.0625 C 2.234375 -0.953125 2.359375 -0.90625 2.515625 -0.90625 C 2.59375 -0.90625 2.671875 -0.921875 2.734375 -0.953125 C 2.796875 -0.984375 2.859375 -1.015625 2.90625 -1.0625 C 2.953125 -1.109375 2.984375 -1.171875 3.015625 -1.234375 C 3.046875 -1.3125 3.0625 -1.375 3.0625 -1.453125 C 3.0625 -1.53125 3.046875 -1.609375 3.015625 -1.671875 C 2.984375 -1.734375 2.953125 -1.796875 2.90625 -1.84375 C 2.859375 -1.90625 2.796875 -1.9375 2.734375 -1.96875 C 2.671875 -2 2.59375 -2.015625 2.515625 -2.015625 C 2.359375 -2.015625 2.234375 -1.953125 2.125 -1.84375 C 2.03125 -1.75 1.96875 -1.609375 1.96875 -1.453125 Z M 0.21875 -7.140625 L 0.21875 0 L 5.078125 0 L 5.078125 -7.140625 Z M 0.46875 -0.265625 L 0.46875 -6.875 L 4.796875 -6.875 L 4.796875 -0.265625 Z M 0.46875 -0.265625 "/>
</symbol>
<symbol overflow="visible" id="glyph1-1">
<path style="stroke:none;" d="M 5.484375 -3.5625 C 5.484375 -4.1875 5.40625 -4.734375 5.28125 -5.1875 C 5.140625 -5.65625 4.96875 -6.03125 4.734375 -6.328125 C 4.5 -6.640625 4.21875 -6.859375 3.90625 -7 C 3.59375 -7.140625 3.25 -7.21875 2.890625 -7.21875 C 2.515625 -7.21875 2.1875 -7.140625 1.859375 -7 C 1.5625 -6.859375 1.28125 -6.640625 1.046875 -6.328125 C 0.8125 -6.03125 0.640625 -5.65625 0.5 -5.1875 C 0.359375 -4.734375 0.296875 -4.1875 0.296875 -3.5625 C 0.296875 -2.953125 0.359375 -2.40625 0.5 -1.9375 C 0.640625 -1.484375 0.8125 -1.109375 1.046875 -0.8125 C 1.28125 -0.515625 1.5625 -0.296875 1.859375 -0.140625 C 2.1875 0 2.515625 0.078125 2.890625 0.078125 C 3.25 0.078125 3.59375 0 3.90625 -0.140625 C 4.21875 -0.296875 4.5 -0.515625 4.734375 -0.8125 C 4.96875 -1.109375 5.140625 -1.484375 5.28125 -1.9375 C 5.40625 -2.40625 5.484375 -2.953125 5.484375 -3.5625 Z M 4.5625 -3.5625 C 4.5625 -3.03125 4.515625 -2.5625 4.421875 -2.203125 C 4.328125 -1.828125 4.203125 -1.53125 4.0625 -1.3125 C 3.890625 -1.078125 3.71875 -0.921875 3.515625 -0.8125 C 3.3125 -0.71875 3.109375 -0.671875 2.890625 -0.671875 C 2.671875 -0.671875 2.453125 -0.71875 2.25 -0.8125 C 2.046875 -0.921875 1.875 -1.078125 1.71875 -1.3125 C 1.5625 -1.53125 1.453125 -1.828125 1.359375 -2.203125 C 1.265625 -2.5625 1.21875 -3.03125 1.21875 -3.5625 C 1.21875 -4.109375 1.265625 -4.578125 1.359375 -4.9375 C 1.453125 -5.3125 1.5625 -5.609375 1.71875 -5.84375 C 1.875 -6.0625 2.046875 -6.21875 2.25 -6.3125 C 2.453125 -6.421875 2.671875 -6.46875 2.890625 -6.46875 C 3.109375 -6.46875 3.3125 -6.421875 3.515625 -6.3125 C 3.71875 -6.21875 3.890625 -6.0625 4.0625 -5.84375 C 4.203125 -5.609375 4.328125 -5.3125 4.421875 -4.9375 C 4.515625 -4.578125 4.5625 -4.109375 4.5625 -3.5625 Z M 4.5625 -3.5625 "/>
</symbol>
<symbol overflow="visible" id="glyph1-2">
<path style="stroke:none;" d="M 0.546875 -0.546875 C 0.546875 -0.453125 0.5625 -0.375 0.59375 -0.296875 C 0.640625 -0.234375 0.671875 -0.15625 0.734375 -0.109375 C 0.78125 -0.046875 0.859375 0 0.921875 0.03125 C 1 0.0625 1.09375 0.078125 1.171875 0.078125 C 1.25 0.078125 1.34375 0.0625 1.421875 0.03125 C 1.484375 0 1.5625 -0.046875 1.609375 -0.109375 C 1.671875 -0.15625 1.71875 -0.234375 1.75 -0.296875 C 1.78125 -0.375 1.796875 -0.453125 1.796875 -0.546875 C 1.796875 -0.640625 1.78125 -0.71875 1.75 -0.796875 C 1.71875 -0.875 1.671875 -0.9375 1.609375 -0.984375 C 1.5625 -1.046875 1.484375 -1.09375 1.421875 -1.125 C 1.34375 -1.15625 1.25 -1.171875 1.171875 -1.171875 C 1.09375 -1.171875 1 -1.15625 0.921875 -1.125 C 0.859375 -1.09375 0.78125 -1.046875 0.734375 -0.984375 C 0.671875 -0.9375 0.640625 -0.875 0.59375 -0.796875 C 0.5625 -0.71875 0.546875 -0.640625 0.546875 -0.546875 Z M 0.546875 -0.546875 "/>
</symbol>
<symbol overflow="visible" id="glyph1-3">
<path style="stroke:none;" d="M 1.796875 -4.453125 L 2.140625 -6.3125 L 4.375 -6.3125 C 4.5625 -6.3125 4.703125 -6.359375 4.78125 -6.4375 C 4.859375 -6.53125 4.890625 -6.625 4.890625 -6.75 L 4.890625 -7.140625 L 1.515625 -7.140625 L 0.9375 -3.796875 L 1.5 -3.640625 C 1.703125 -3.703125 1.890625 -3.75 2.09375 -3.78125 C 2.28125 -3.8125 2.46875 -3.828125 2.65625 -3.828125 C 2.921875 -3.828125 3.140625 -3.796875 3.34375 -3.71875 C 3.53125 -3.65625 3.703125 -3.546875 3.828125 -3.421875 C 3.96875 -3.296875 4.0625 -3.15625 4.125 -2.96875 C 4.1875 -2.796875 4.21875 -2.59375 4.21875 -2.375 C 4.21875 -2.109375 4.1875 -1.875 4.109375 -1.671875 C 4.03125 -1.46875 3.921875 -1.296875 3.78125 -1.140625 C 3.640625 -1 3.46875 -0.875 3.265625 -0.796875 C 3.0625 -0.71875 2.84375 -0.6875 2.59375 -0.6875 C 2.375 -0.6875 2.171875 -0.703125 2.015625 -0.75 C 1.859375 -0.8125 1.71875 -0.875 1.59375 -0.9375 C 1.46875 -1 1.375 -1.046875 1.296875 -1.109375 C 1.203125 -1.15625 1.125 -1.1875 1.0625 -1.1875 C 0.96875 -1.1875 0.890625 -1.140625 0.828125 -1.046875 L 0.5625 -0.671875 C 0.671875 -0.578125 0.796875 -0.484375 0.9375 -0.390625 C 1.078125 -0.296875 1.234375 -0.21875 1.40625 -0.15625 C 1.5625 -0.078125 1.75 -0.03125 1.9375 0.015625 C 2.140625 0.0625 2.34375 0.078125 2.546875 0.078125 C 2.90625 0.078125 3.25 0.015625 3.5625 -0.09375 C 3.875 -0.203125 4.140625 -0.375 4.375 -0.59375 C 4.609375 -0.8125 4.78125 -1.078125 4.921875 -1.375 C 5.046875 -1.6875 5.109375 -2.03125 5.109375 -2.40625 C 5.109375 -2.71875 5.0625 -3 4.96875 -3.265625 C 4.875 -3.53125 4.71875 -3.75 4.53125 -3.953125 C 4.34375 -4.140625 4.109375 -4.296875 3.8125 -4.40625 C 3.53125 -4.515625 3.203125 -4.5625 2.828125 -4.5625 C 2.515625 -4.5625 2.171875 -4.53125 1.796875 -4.453125 Z M 1.796875 -4.453125 "/>
</symbol>
<symbol overflow="visible" id="glyph1-4">
<path style="stroke:none;" d="M 0.640625 -5.203125 L 1.109375 -5.125 C 1.234375 -5.109375 1.328125 -5.125 1.390625 -5.15625 C 1.453125 -5.203125 1.515625 -5.28125 1.5625 -5.390625 C 1.59375 -5.546875 1.640625 -5.6875 1.71875 -5.828125 C 1.796875 -5.953125 1.90625 -6.0625 2.03125 -6.15625 C 2.140625 -6.25 2.265625 -6.328125 2.4375 -6.375 C 2.578125 -6.4375 2.75 -6.453125 2.9375 -6.453125 C 3.109375 -6.453125 3.28125 -6.4375 3.421875 -6.390625 C 3.59375 -6.328125 3.71875 -6.265625 3.828125 -6.15625 C 3.953125 -6.0625 4.03125 -5.9375 4.09375 -5.78125 C 4.171875 -5.625 4.203125 -5.453125 4.203125 -5.25 C 4.203125 -5.0625 4.171875 -4.890625 4.109375 -4.734375 C 4.046875 -4.578125 3.953125 -4.453125 3.8125 -4.34375 C 3.671875 -4.234375 3.5 -4.140625 3.296875 -4.078125 C 3.078125 -4.015625 2.8125 -3.984375 2.5 -3.984375 L 2.5 -3.34375 C 2.875 -3.34375 3.1875 -3.296875 3.421875 -3.234375 C 3.65625 -3.171875 3.84375 -3.078125 3.984375 -2.96875 C 4.109375 -2.84375 4.21875 -2.71875 4.265625 -2.546875 C 4.3125 -2.390625 4.34375 -2.21875 4.34375 -2.03125 C 4.34375 -1.875 4.3125 -1.703125 4.234375 -1.546875 C 4.171875 -1.390625 4.09375 -1.25 3.953125 -1.109375 C 3.84375 -0.984375 3.671875 -0.875 3.484375 -0.796875 C 3.296875 -0.71875 3.078125 -0.671875 2.84375 -0.671875 C 2.5625 -0.671875 2.34375 -0.71875 2.171875 -0.796875 C 2 -0.890625 1.859375 -0.984375 1.734375 -1.109375 C 1.625 -1.21875 1.53125 -1.34375 1.46875 -1.484375 C 1.40625 -1.609375 1.359375 -1.71875 1.3125 -1.8125 C 1.265625 -1.90625 1.203125 -1.953125 1.109375 -1.984375 C 1 -2 0.90625 -1.984375 0.8125 -1.9375 L 0.421875 -1.78125 C 0.515625 -1.515625 0.609375 -1.265625 0.734375 -1.046875 C 0.859375 -0.8125 1 -0.625 1.1875 -0.453125 C 1.375 -0.296875 1.609375 -0.15625 1.875 -0.0625 C 2.140625 0.03125 2.46875 0.078125 2.84375 0.078125 C 3.171875 0.078125 3.484375 0.03125 3.765625 -0.0625 C 4.0625 -0.171875 4.3125 -0.3125 4.53125 -0.484375 C 4.734375 -0.671875 4.921875 -0.890625 5.03125 -1.15625 C 5.15625 -1.421875 5.21875 -1.71875 5.21875 -2.046875 C 5.21875 -2.484375 5.109375 -2.84375 4.875 -3.140625 C 4.640625 -3.421875 4.28125 -3.640625 3.828125 -3.75 C 4.015625 -3.8125 4.1875 -3.890625 4.34375 -3.984375 C 4.484375 -4.078125 4.625 -4.1875 4.71875 -4.328125 C 4.828125 -4.453125 4.921875 -4.609375 4.96875 -4.78125 C 5.03125 -4.96875 5.0625 -5.171875 5.0625 -5.390625 C 5.0625 -5.671875 5.015625 -5.921875 4.90625 -6.140625 C 4.8125 -6.375 4.671875 -6.5625 4.46875 -6.71875 C 4.296875 -6.890625 4.078125 -7.015625 3.8125 -7.09375 C 3.5625 -7.171875 3.28125 -7.21875 2.984375 -7.21875 C 2.671875 -7.21875 2.390625 -7.171875 2.125 -7.09375 C 1.859375 -7 1.625 -6.875 1.421875 -6.703125 C 1.21875 -6.53125 1.046875 -6.328125 0.921875 -6.078125 C 0.78125 -5.828125 0.6875 -5.53125 0.640625 -5.203125 Z M 0.640625 -5.203125 "/>
</symbol>
<symbol overflow="visible" id="glyph1-5">
<path style="stroke:none;" d="M 1.875 -6.359375 L 5.3125 -6.359375 L 5.3125 -7.140625 L 0.90625 -7.140625 L 0.90625 0 L 1.875 0 L 1.875 -3.078125 L 4.8125 -3.078125 L 4.8125 -3.859375 L 1.875 -3.859375 Z M 1.875 -6.359375 "/>
</symbol>
<symbol overflow="visible" id="glyph1-6">
<path style="stroke:none;" d="M 1.640625 -5.046875 L 0.75 -5.046875 L 0.75 0 L 1.640625 0 Z M 1.828125 -6.640625 C 1.828125 -6.71875 1.8125 -6.796875 1.78125 -6.875 C 1.75 -6.953125 1.6875 -7.03125 1.640625 -7.09375 C 1.578125 -7.140625 1.515625 -7.1875 1.4375 -7.21875 C 1.359375 -7.25 1.265625 -7.265625 1.1875 -7.265625 C 1.09375 -7.265625 1.015625 -7.25 0.953125 -7.21875 C 0.875 -7.1875 0.796875 -7.140625 0.75 -7.09375 C 0.6875 -7.03125 0.640625 -6.953125 0.609375 -6.875 C 0.578125 -6.796875 0.5625 -6.71875 0.5625 -6.640625 C 0.5625 -6.546875 0.578125 -6.46875 0.609375 -6.390625 C 0.640625 -6.3125 0.6875 -6.25 0.75 -6.1875 C 0.796875 -6.140625 0.875 -6.09375 0.953125 -6.0625 C 1.015625 -6.015625 1.09375 -6 1.1875 -6 C 1.265625 -6 1.359375 -6.015625 1.4375 -6.0625 C 1.515625 -6.09375 1.578125 -6.140625 1.640625 -6.1875 C 1.6875 -6.25 1.75 -6.3125 1.78125 -6.390625 C 1.8125 -6.46875 1.828125 -6.546875 1.828125 -6.640625 Z M 1.828125 -6.640625 "/>
</symbol>
<symbol overflow="visible" id="glyph1-7">
<path style="stroke:none;" d="M 2.25 0.078125 C 2.484375 0.078125 2.703125 0.046875 2.921875 -0.046875 C 3.140625 -0.125 3.3125 -0.234375 3.46875 -0.375 L 3.21875 -0.796875 C 3.1875 -0.859375 3.140625 -0.890625 3.09375 -0.890625 C 3.0625 -0.890625 3.03125 -0.875 3 -0.84375 C 2.953125 -0.828125 2.921875 -0.796875 2.875 -0.765625 C 2.828125 -0.734375 2.765625 -0.703125 2.6875 -0.6875 C 2.625 -0.65625 2.546875 -0.640625 2.453125 -0.640625 C 2.28125 -0.640625 2.15625 -0.703125 2.046875 -0.796875 C 1.953125 -0.90625 1.90625 -1.0625 1.90625 -1.28125 L 1.90625 -4.3125 L 3.359375 -4.3125 L 3.359375 -4.953125 L 1.90625 -4.953125 L 1.90625 -6.6875 L 1.453125 -6.6875 C 1.390625 -6.6875 1.34375 -6.671875 1.3125 -6.640625 C 1.28125 -6.609375 1.25 -6.5625 1.25 -6.515625 L 1.046875 -4.953125 L 0.21875 -4.859375 L 0.21875 -4.5 C 0.21875 -4.4375 0.234375 -4.390625 0.265625 -4.359375 C 0.296875 -4.328125 0.34375 -4.3125 0.40625 -4.3125 L 1.015625 -4.3125 L 1.015625 -1.21875 C 1.015625 -0.796875 1.109375 -0.484375 1.328125 -0.25 C 1.546875 -0.03125 1.859375 0.078125 2.25 0.078125 Z M 2.25 0.078125 "/>
</symbol>
<symbol overflow="visible" id="glyph1-8">
<path style="stroke:none;" d="M 1.546875 -4.3125 L 1.46875 -4.859375 C 1.4375 -4.984375 1.359375 -5.046875 1.234375 -5.046875 L 0.703125 -5.046875 L 0.703125 0 L 1.59375 0 L 1.59375 -3.71875 C 1.796875 -3.9375 2 -4.109375 2.21875 -4.234375 C 2.453125 -4.359375 2.703125 -4.421875 2.953125 -4.421875 C 3.3125 -4.421875 3.578125 -4.3125 3.765625 -4.109375 C 3.921875 -3.890625 4.015625 -3.59375 4.015625 -3.21875 L 4.015625 0 L 4.90625 0 L 4.90625 -3.21875 C 4.90625 -3.5 4.875 -3.765625 4.796875 -4 C 4.71875 -4.234375 4.625 -4.4375 4.46875 -4.609375 C 4.34375 -4.765625 4.15625 -4.90625 3.953125 -5 C 3.734375 -5.078125 3.5 -5.125 3.21875 -5.125 C 3.046875 -5.125 2.875 -5.109375 2.71875 -5.078125 C 2.5625 -5.03125 2.421875 -4.984375 2.28125 -4.90625 C 2.140625 -4.828125 2.015625 -4.75 1.890625 -4.65625 C 1.765625 -4.546875 1.65625 -4.4375 1.546875 -4.3125 Z M 1.546875 -4.3125 "/>
</symbol>
<symbol overflow="visible" id="glyph1-9">
<path style="stroke:none;" d="M 4.078125 -3.078125 L 1.328125 -3.078125 C 1.375 -3.515625 1.53125 -3.859375 1.78125 -4.109375 C 2.03125 -4.34375 2.375 -4.46875 2.796875 -4.46875 C 3 -4.46875 3.171875 -4.4375 3.328125 -4.375 C 3.5 -4.3125 3.625 -4.203125 3.734375 -4.09375 C 3.859375 -3.953125 3.9375 -3.8125 4 -3.640625 C 4.046875 -3.46875 4.078125 -3.28125 4.078125 -3.078125 Z M 4.796875 -0.703125 L 4.546875 -1.03125 C 4.515625 -1.09375 4.453125 -1.109375 4.375 -1.109375 C 4.328125 -1.109375 4.25 -1.09375 4.171875 -1.03125 C 4.109375 -0.984375 4 -0.9375 3.890625 -0.875 C 3.765625 -0.8125 3.640625 -0.75 3.46875 -0.703125 C 3.3125 -0.65625 3.125 -0.625 2.890625 -0.625 C 2.65625 -0.625 2.4375 -0.671875 2.25 -0.75 C 2.046875 -0.828125 1.890625 -0.9375 1.75 -1.09375 C 1.609375 -1.25 1.5 -1.453125 1.421875 -1.6875 C 1.34375 -1.921875 1.296875 -2.203125 1.296875 -2.515625 L 4.671875 -2.515625 C 4.75 -2.515625 4.8125 -2.546875 4.828125 -2.59375 C 4.859375 -2.640625 4.875 -2.734375 4.875 -2.875 C 4.875 -3.234375 4.828125 -3.546875 4.71875 -3.828125 C 4.609375 -4.109375 4.46875 -4.34375 4.28125 -4.53125 C 4.09375 -4.734375 3.875 -4.875 3.609375 -4.96875 C 3.359375 -5.078125 3.078125 -5.125 2.765625 -5.125 C 2.40625 -5.125 2.078125 -5.0625 1.78125 -4.9375 C 1.484375 -4.8125 1.25 -4.640625 1.046875 -4.40625 C 0.84375 -4.1875 0.6875 -3.921875 0.578125 -3.609375 C 0.46875 -3.3125 0.40625 -2.984375 0.40625 -2.625 C 0.40625 -2.1875 0.46875 -1.796875 0.59375 -1.46875 C 0.71875 -1.140625 0.875 -0.859375 1.09375 -0.625 C 1.3125 -0.40625 1.5625 -0.21875 1.859375 -0.109375 C 2.15625 0.015625 2.46875 0.0625 2.828125 0.0625 C 3 0.0625 3.1875 0.0625 3.375 0.015625 C 3.5625 -0.015625 3.734375 -0.0625 3.921875 -0.125 C 4.09375 -0.1875 4.25 -0.265625 4.40625 -0.359375 C 4.5625 -0.453125 4.6875 -0.578125 4.796875 -0.703125 Z M 4.796875 -0.703125 "/>
</symbol>
<symbol overflow="visible" id="glyph1-10">
<path style="stroke:none;" d="M 3.640625 -4.21875 L 3.84375 -4.546875 C 3.65625 -4.71875 3.421875 -4.859375 3.15625 -4.96875 C 2.890625 -5.078125 2.59375 -5.125 2.265625 -5.125 C 1.984375 -5.125 1.71875 -5.09375 1.5 -5.015625 C 1.28125 -4.921875 1.09375 -4.828125 0.9375 -4.6875 C 0.78125 -4.5625 0.671875 -4.390625 0.59375 -4.21875 C 0.515625 -4.046875 0.46875 -3.859375 0.46875 -3.65625 C 0.46875 -3.453125 0.515625 -3.265625 0.578125 -3.109375 C 0.65625 -2.953125 0.75 -2.84375 0.875 -2.734375 C 1 -2.625 1.140625 -2.546875 1.296875 -2.46875 C 1.453125 -2.40625 1.609375 -2.34375 1.78125 -2.296875 C 1.9375 -2.234375 2.109375 -2.1875 2.265625 -2.140625 C 2.421875 -2.09375 2.5625 -2.03125 2.6875 -1.96875 C 2.8125 -1.90625 2.90625 -1.828125 2.984375 -1.734375 C 3.0625 -1.640625 3.09375 -1.53125 3.09375 -1.390625 C 3.09375 -1.28125 3.078125 -1.171875 3.03125 -1.078125 C 2.984375 -0.96875 2.921875 -0.875 2.84375 -0.8125 C 2.75 -0.734375 2.640625 -0.671875 2.515625 -0.625 C 2.390625 -0.578125 2.234375 -0.5625 2.0625 -0.5625 C 1.859375 -0.5625 1.6875 -0.578125 1.5625 -0.625 C 1.421875 -0.671875 1.3125 -0.734375 1.203125 -0.78125 C 1.109375 -0.84375 1.03125 -0.890625 0.96875 -0.9375 C 0.90625 -0.984375 0.84375 -1 0.78125 -1 C 0.71875 -1 0.671875 -1 0.640625 -0.96875 C 0.609375 -0.953125 0.5625 -0.921875 0.546875 -0.875 L 0.328125 -0.53125 C 0.53125 -0.359375 0.78125 -0.203125 1.0625 -0.09375 C 1.34375 0.015625 1.671875 0.078125 2.015625 0.078125 C 2.328125 0.078125 2.609375 0.046875 2.84375 -0.046875 C 3.078125 -0.125 3.265625 -0.234375 3.4375 -0.390625 C 3.59375 -0.53125 3.71875 -0.703125 3.796875 -0.890625 C 3.890625 -1.09375 3.921875 -1.3125 3.921875 -1.546875 C 3.921875 -1.75 3.890625 -1.921875 3.8125 -2.0625 C 3.734375 -2.21875 3.640625 -2.328125 3.515625 -2.4375 C 3.390625 -2.53125 3.25 -2.609375 3.09375 -2.6875 C 2.953125 -2.75 2.78125 -2.8125 2.625 -2.859375 C 2.453125 -2.921875 2.296875 -2.96875 2.140625 -3.015625 C 1.984375 -3.0625 1.84375 -3.125 1.71875 -3.1875 C 1.59375 -3.25 1.5 -3.328125 1.421875 -3.40625 C 1.34375 -3.5 1.3125 -3.609375 1.3125 -3.734375 C 1.3125 -3.84375 1.328125 -3.9375 1.375 -4.015625 C 1.421875 -4.109375 1.484375 -4.1875 1.578125 -4.25 C 1.65625 -4.3125 1.765625 -4.375 1.875 -4.40625 C 2 -4.453125 2.140625 -4.46875 2.28125 -4.46875 C 2.453125 -4.46875 2.609375 -4.453125 2.734375 -4.40625 C 2.859375 -4.375 2.96875 -4.328125 3.0625 -4.28125 C 3.15625 -4.234375 3.21875 -4.203125 3.296875 -4.15625 C 3.359375 -4.125 3.40625 -4.109375 3.453125 -4.109375 C 3.546875 -4.109375 3.609375 -4.140625 3.640625 -4.21875 Z M 3.640625 -4.21875 "/>
</symbol>
<symbol overflow="visible" id="glyph1-11">
<path style="stroke:none;" d="M 6.71875 -3.4375 L 4.515625 -3.4375 L 4.515625 -2.890625 C 4.515625 -2.828125 4.546875 -2.78125 4.578125 -2.75 C 4.609375 -2.71875 4.671875 -2.703125 4.734375 -2.703125 L 5.84375 -2.703125 L 5.84375 -1.125 C 5.59375 -0.984375 5.34375 -0.890625 5.078125 -0.8125 C 4.828125 -0.734375 4.53125 -0.703125 4.203125 -0.703125 C 3.78125 -0.703125 3.40625 -0.765625 3.0625 -0.890625 C 2.71875 -1.03125 2.4375 -1.21875 2.1875 -1.46875 C 1.953125 -1.703125 1.78125 -2.015625 1.640625 -2.359375 C 1.515625 -2.71875 1.453125 -3.125 1.453125 -3.5625 C 1.453125 -4 1.515625 -4.390625 1.640625 -4.734375 C 1.765625 -5.078125 1.9375 -5.390625 2.171875 -5.625 C 2.390625 -5.875 2.671875 -6.0625 3 -6.1875 C 3.328125 -6.3125 3.6875 -6.390625 4.09375 -6.390625 C 4.359375 -6.390625 4.609375 -6.359375 4.8125 -6.3125 C 5.015625 -6.28125 5.1875 -6.21875 5.328125 -6.15625 C 5.484375 -6.09375 5.609375 -6.03125 5.703125 -5.96875 C 5.8125 -5.90625 5.90625 -5.84375 5.984375 -5.796875 C 6.0625 -5.75 6.140625 -5.734375 6.203125 -5.75 C 6.28125 -5.765625 6.328125 -5.8125 6.375 -5.875 L 6.65625 -6.3125 C 6.5 -6.453125 6.328125 -6.578125 6.15625 -6.703125 C 5.984375 -6.8125 5.78125 -6.90625 5.578125 -6.984375 C 5.375 -7.0625 5.15625 -7.125 4.90625 -7.15625 C 4.671875 -7.203125 4.40625 -7.21875 4.125 -7.21875 C 3.5625 -7.21875 3.0625 -7.125 2.609375 -6.953125 C 2.15625 -6.78125 1.765625 -6.53125 1.453125 -6.203125 C 1.140625 -5.890625 0.890625 -5.5 0.734375 -5.0625 C 0.546875 -4.609375 0.46875 -4.109375 0.46875 -3.5625 C 0.46875 -3.03125 0.5625 -2.53125 0.734375 -2.09375 C 0.90625 -1.640625 1.15625 -1.25 1.484375 -0.9375 C 1.8125 -0.609375 2.203125 -0.359375 2.671875 -0.1875 C 3.140625 -0.015625 3.65625 0.078125 4.234375 0.078125 C 4.703125 0.078125 5.15625 0.015625 5.5625 -0.109375 C 5.96875 -0.234375 6.359375 -0.4375 6.71875 -0.6875 Z M 6.71875 -3.4375 "/>
</symbol>
<symbol overflow="visible" id="glyph1-12">
<path style="stroke:none;" d="M 2.828125 -5.125 C 2.453125 -5.125 2.125 -5.0625 1.828125 -4.9375 C 1.53125 -4.8125 1.28125 -4.640625 1.0625 -4.421875 C 0.859375 -4.203125 0.703125 -3.921875 0.59375 -3.59375 C 0.46875 -3.28125 0.421875 -2.921875 0.421875 -2.53125 C 0.421875 -2.125 0.46875 -1.765625 0.59375 -1.453125 C 0.703125 -1.125 0.859375 -0.859375 1.0625 -0.640625 C 1.28125 -0.40625 1.53125 -0.234375 1.828125 -0.109375 C 2.125 0.015625 2.453125 0.0625 2.828125 0.0625 C 3.203125 0.0625 3.53125 0.015625 3.828125 -0.109375 C 4.125 -0.234375 4.375 -0.40625 4.578125 -0.640625 C 4.796875 -0.859375 4.953125 -1.125 5.0625 -1.453125 C 5.171875 -1.765625 5.234375 -2.125 5.234375 -2.53125 C 5.234375 -2.921875 5.171875 -3.28125 5.0625 -3.59375 C 4.953125 -3.921875 4.796875 -4.203125 4.578125 -4.421875 C 4.375 -4.640625 4.125 -4.8125 3.828125 -4.9375 C 3.53125 -5.0625 3.203125 -5.125 2.828125 -5.125 Z M 2.828125 -0.625 C 2.328125 -0.625 1.953125 -0.78125 1.703125 -1.125 C 1.453125 -1.453125 1.328125 -1.921875 1.328125 -2.515625 C 1.328125 -2.828125 1.359375 -3.09375 1.421875 -3.328125 C 1.484375 -3.5625 1.578125 -3.765625 1.703125 -3.921875 C 1.828125 -4.09375 1.984375 -4.21875 2.171875 -4.296875 C 2.359375 -4.390625 2.578125 -4.4375 2.828125 -4.4375 C 3.328125 -4.4375 3.703125 -4.265625 3.953125 -3.921875 C 4.1875 -3.59375 4.3125 -3.125 4.3125 -2.515625 C 4.3125 -1.921875 4.1875 -1.453125 3.953125 -1.125 C 3.703125 -0.78125 3.328125 -0.625 2.828125 -0.625 Z M 2.828125 -0.625 "/>
</symbol>
<symbol overflow="visible" id="glyph1-13">
<path style="stroke:none;" d="M 3.4375 -2.265625 L 3.4375 -1.21875 C 3.34375 -1.125 3.234375 -1.03125 3.125 -0.9375 C 3.03125 -0.859375 2.921875 -0.78125 2.796875 -0.734375 C 2.6875 -0.671875 2.5625 -0.625 2.4375 -0.59375 C 2.3125 -0.5625 2.15625 -0.546875 2.015625 -0.546875 C 1.890625 -0.546875 1.78125 -0.5625 1.6875 -0.59375 C 1.578125 -0.609375 1.5 -0.65625 1.421875 -0.71875 C 1.34375 -0.78125 1.28125 -0.859375 1.234375 -0.953125 C 1.203125 -1.046875 1.171875 -1.171875 1.171875 -1.296875 C 1.171875 -1.4375 1.21875 -1.5625 1.296875 -1.6875 C 1.375 -1.796875 1.515625 -1.890625 1.6875 -1.96875 C 1.875 -2.0625 2.109375 -2.125 2.390625 -2.171875 C 2.6875 -2.234375 3.03125 -2.265625 3.4375 -2.265625 Z M 0.578125 -4.34375 L 0.734375 -4.046875 C 0.765625 -4 0.796875 -3.96875 0.84375 -3.9375 C 0.890625 -3.90625 0.9375 -3.890625 1 -3.890625 C 1.078125 -3.890625 1.15625 -3.921875 1.21875 -3.96875 C 1.3125 -4.03125 1.40625 -4.09375 1.5 -4.15625 C 1.609375 -4.21875 1.75 -4.28125 1.890625 -4.34375 C 2.03125 -4.390625 2.21875 -4.421875 2.4375 -4.421875 C 2.765625 -4.421875 3.015625 -4.328125 3.1875 -4.109375 C 3.359375 -3.921875 3.4375 -3.625 3.4375 -3.234375 L 3.4375 -2.84375 C 2.859375 -2.828125 2.375 -2.765625 1.984375 -2.6875 C 1.59375 -2.59375 1.265625 -2.46875 1.015625 -2.328125 C 0.78125 -2.1875 0.59375 -2.03125 0.484375 -1.828125 C 0.375 -1.65625 0.328125 -1.453125 0.328125 -1.265625 C 0.328125 -1.03125 0.359375 -0.828125 0.4375 -0.671875 C 0.515625 -0.5 0.609375 -0.359375 0.734375 -0.25 C 0.875 -0.140625 1.015625 -0.0625 1.1875 0 C 1.359375 0.046875 1.546875 0.078125 1.75 0.078125 C 1.9375 0.078125 2.109375 0.0625 2.265625 0.03125 C 2.421875 -0.015625 2.578125 -0.0625 2.71875 -0.125 C 2.859375 -0.1875 2.984375 -0.265625 3.109375 -0.359375 C 3.234375 -0.453125 3.375 -0.5625 3.5 -0.6875 L 3.609375 -0.203125 C 3.625 -0.125 3.671875 -0.0625 3.71875 -0.046875 C 3.765625 -0.015625 3.828125 0 3.90625 0 L 4.3125 0 L 4.3125 -3.234375 C 4.3125 -3.515625 4.265625 -3.765625 4.1875 -4 C 4.109375 -4.234375 4 -4.453125 3.859375 -4.609375 C 3.703125 -4.78125 3.515625 -4.90625 3.296875 -5 C 3.078125 -5.09375 2.828125 -5.140625 2.546875 -5.140625 C 2.15625 -5.140625 1.796875 -5.078125 1.46875 -4.9375 C 1.15625 -4.8125 0.859375 -4.609375 0.578125 -4.34375 Z M 0.578125 -4.34375 "/>
</symbol>
<symbol overflow="visible" id="glyph1-14">
<path style="stroke:none;" d="M 1.625 -7.34375 L 0.734375 -7.34375 L 0.734375 0 L 1.625 0 Z M 1.625 -7.34375 "/>
</symbol>
</g>
<clipPath id="clip1">
  <path d="M 10.0625 18.929688 L 293.53125 18.929688 L 293.53125 47.277344 L 10.0625 47.277344 Z M 10.0625 18.929688 "/>
</clipPath>
<linearGradient id="linear0" gradientUnits="userSpaceOnUse" x1="0" y1="25.002988" x2="0" y2="74.997009" gradientTransform="matrix(0,-0.567,-5.67004,0,435.29904,61.45261)">
<stop offset="0" style="stop-color:rgb(0.00457764%,0%,0%);stop-opacity:1;"/>
<stop offset="0.00390625" style="stop-color:rgb(0.363159%,0.0183105%,0%);stop-opacity:1;"/>
<stop offset="0.0078125" style="stop-color:rgb(0.723267%,0.0366211%,0%);stop-opacity:1;"/>
<stop offset="0.0117187" style="stop-color:rgb(1.083374%,0.0549316%,0%);stop-opacity:1;"/>
<stop offset="0.015625" style="stop-color:rgb(1.443481%,0.0732422%,0%);stop-opacity:1;"/>
<stop offset="0.0195312" style="stop-color:rgb(1.803589%,0.0915527%,0%);stop-opacity:1;"/>
<stop offset="0.0234375" style="stop-color:rgb(2.163696%,0.109863%,0%);stop-opacity:1;"/>
<stop offset="0.0273437" style="stop-color:rgb(2.523804%,0.128174%,0%);stop-opacity:1;"/>
<stop offset="0.03125" style="stop-color:rgb(2.883911%,0.146484%,0%);stop-opacity:1;"/>
<stop offset="0.0351562" style="stop-color:rgb(3.244019%,0.164795%,0%);stop-opacity:1;"/>
<stop offset="0.0390625" style="stop-color:rgb(3.604126%,0.183105%,0%);stop-opacity:1;"/>
<stop offset="0.0429687" style="stop-color:rgb(3.962708%,0.201416%,0%);stop-opacity:1;"/>
<stop offset="0.046875" style="stop-color:rgb(4.322815%,0.219727%,0%);stop-opacity:1;"/>
<stop offset="0.0507812" style="stop-color:rgb(4.682922%,0.238037%,0%);stop-opacity:1;"/>
<stop offset="0.0546875" style="stop-color:rgb(5.04303%,0.256348%,0%);stop-opacity:1;"/>
<stop offset="0.0585937" style="stop-color:rgb(5.403137%,0.274658%,0%);stop-opacity:1;"/>
<stop offset="0.0625" style="stop-color:rgb(5.763245%,0.292969%,0%);stop-opacity:1;"/>
<stop offset="0.0664062" style="stop-color:rgb(6.123352%,0.311279%,0%);stop-opacity:1;"/>
<stop offset="0.0703125" style="stop-color:rgb(6.483459%,0.32959%,0%);stop-opacity:1;"/>
<stop offset="0.0742187" style="stop-color:rgb(6.842041%,0.3479%,0%);stop-opacity:1;"/>
<stop offset="0.078125" style="stop-color:rgb(7.202148%,0.367737%,0%);stop-opacity:1;"/>
<stop offset="0.0820312" style="stop-color:rgb(7.562256%,0.386047%,0%);stop-opacity:1;"/>
<stop offset="0.0859375" style="stop-color:rgb(7.922363%,0.404358%,0%);stop-opacity:1;"/>
<stop offset="0.0898437" style="stop-color:rgb(8.282471%,0.422668%,0%);stop-opacity:1;"/>
<stop offset="0.09375" style="stop-color:rgb(8.642578%,0.440979%,0%);stop-opacity:1;"/>
<stop offset="0.0976562" style="stop-color:rgb(9.002686%,0.45929%,0%);stop-opacity:1;"/>
<stop offset="0.101562" style="stop-color:rgb(9.362793%,0.4776%,0%);stop-opacity:1;"/>
<stop offset="0.105469" style="stop-color:rgb(9.7229%,0.495911%,0%);stop-opacity:1;"/>
<stop offset="0.109375" style="stop-color:rgb(10.083008%,0.514221%,0%);stop-opacity:1;"/>
<stop offset="0.113281" style="stop-color:rgb(10.441589%,0.532532%,0%);stop-opacity:1;"/>
<stop offset="0.117187" style="stop-color:rgb(10.801697%,0.550842%,0%);stop-opacity:1;"/>
<stop offset="0.121094" style="stop-color:rgb(11.161804%,0.569153%,0%);stop-opacity:1;"/>
<stop offset="0.125" style="stop-color:rgb(11.521912%,0.587463%,0%);stop-opacity:1;"/>
<stop offset="0.128906" style="stop-color:rgb(11.882019%,0.605774%,0%);stop-opacity:1;"/>
<stop offset="0.132812" style="stop-color:rgb(12.242126%,0.624084%,0%);stop-opacity:1;"/>
<stop offset="0.136719" style="stop-color:rgb(12.602234%,0.642395%,0%);stop-opacity:1;"/>
<stop offset="0.140625" style="stop-color:rgb(12.962341%,0.660706%,0%);stop-opacity:1;"/>
<stop offset="0.144531" style="stop-color:rgb(13.320923%,0.679016%,0%);stop-opacity:1;"/>
<stop offset="0.148437" style="stop-color:rgb(13.68103%,0.697327%,0%);stop-opacity:1;"/>
<stop offset="0.152344" style="stop-color:rgb(14.041138%,0.715637%,0%);stop-opacity:1;"/>
<stop offset="0.15625" style="stop-color:rgb(14.401245%,0.733948%,0%);stop-opacity:1;"/>
<stop offset="0.160156" style="stop-color:rgb(14.761353%,0.752258%,0%);stop-opacity:1;"/>
<stop offset="0.164062" style="stop-color:rgb(15.12146%,0.772095%,0%);stop-opacity:1;"/>
<stop offset="0.167969" style="stop-color:rgb(15.481567%,0.790405%,0%);stop-opacity:1;"/>
<stop offset="0.171875" style="stop-color:rgb(15.841675%,0.808716%,0%);stop-opacity:1;"/>
<stop offset="0.175781" style="stop-color:rgb(16.201782%,0.827026%,0%);stop-opacity:1;"/>
<stop offset="0.179688" style="stop-color:rgb(16.56189%,0.845337%,0%);stop-opacity:1;"/>
<stop offset="0.183594" style="stop-color:rgb(16.920471%,0.863647%,0%);stop-opacity:1;"/>
<stop offset="0.1875" style="stop-color:rgb(17.280579%,0.881958%,0%);stop-opacity:1;"/>
<stop offset="0.191406" style="stop-color:rgb(17.640686%,0.900269%,0%);stop-opacity:1;"/>
<stop offset="0.195312" style="stop-color:rgb(18.000793%,0.918579%,0%);stop-opacity:1;"/>
<stop offset="0.199219" style="stop-color:rgb(18.360901%,0.93689%,0%);stop-opacity:1;"/>
<stop offset="0.203125" style="stop-color:rgb(18.721008%,0.9552%,0%);stop-opacity:1;"/>
<stop offset="0.207031" style="stop-color:rgb(19.081116%,0.973511%,0%);stop-opacity:1;"/>
<stop offset="0.210938" style="stop-color:rgb(19.441223%,0.991821%,0%);stop-opacity:1;"/>
<stop offset="0.214844" style="stop-color:rgb(19.799805%,1.010132%,0%);stop-opacity:1;"/>
<stop offset="0.21875" style="stop-color:rgb(20.159912%,1.028442%,0%);stop-opacity:1;"/>
<stop offset="0.222656" style="stop-color:rgb(20.52002%,1.046753%,0%);stop-opacity:1;"/>
<stop offset="0.226563" style="stop-color:rgb(20.880127%,1.065063%,0%);stop-opacity:1;"/>
<stop offset="0.230469" style="stop-color:rgb(21.240234%,1.083374%,0%);stop-opacity:1;"/>
<stop offset="0.234375" style="stop-color:rgb(21.600342%,1.101685%,0%);stop-opacity:1;"/>
<stop offset="0.238281" style="stop-color:rgb(21.960449%,1.119995%,0%);stop-opacity:1;"/>
<stop offset="0.242188" style="stop-color:rgb(22.320557%,1.139832%,0%);stop-opacity:1;"/>
<stop offset="0.246094" style="stop-color:rgb(22.680664%,1.158142%,0%);stop-opacity:1;"/>
<stop offset="0.25" style="stop-color:rgb(23.040771%,1.176453%,0%);stop-opacity:1;"/>
<stop offset="0.253906" style="stop-color:rgb(23.399353%,1.194763%,0%);stop-opacity:1;"/>
<stop offset="0.257813" style="stop-color:rgb(23.75946%,1.213074%,0%);stop-opacity:1;"/>
<stop offset="0.261719" style="stop-color:rgb(24.119568%,1.231384%,0%);stop-opacity:1;"/>
<stop offset="0.265625" style="stop-color:rgb(24.479675%,1.249695%,0%);stop-opacity:1;"/>
<stop offset="0.269531" style="stop-color:rgb(24.839783%,1.268005%,0%);stop-opacity:1;"/>
<stop offset="0.273438" style="stop-color:rgb(25.19989%,1.286316%,0%);stop-opacity:1;"/>
<stop offset="0.277344" style="stop-color:rgb(25.559998%,1.304626%,0%);stop-opacity:1;"/>
<stop offset="0.28125" style="stop-color:rgb(25.920105%,1.322937%,0%);stop-opacity:1;"/>
<stop offset="0.285156" style="stop-color:rgb(26.278687%,1.341248%,0%);stop-opacity:1;"/>
<stop offset="0.289063" style="stop-color:rgb(26.638794%,1.359558%,0%);stop-opacity:1;"/>
<stop offset="0.292969" style="stop-color:rgb(26.998901%,1.377869%,0%);stop-opacity:1;"/>
<stop offset="0.296875" style="stop-color:rgb(27.359009%,1.396179%,0%);stop-opacity:1;"/>
<stop offset="0.300781" style="stop-color:rgb(27.719116%,1.41449%,0%);stop-opacity:1;"/>
<stop offset="0.304688" style="stop-color:rgb(28.079224%,1.4328%,0%);stop-opacity:1;"/>
<stop offset="0.308594" style="stop-color:rgb(28.439331%,1.451111%,0%);stop-opacity:1;"/>
<stop offset="0.3125" style="stop-color:rgb(28.799438%,1.469421%,0%);stop-opacity:1;"/>
<stop offset="0.316406" style="stop-color:rgb(29.159546%,1.487732%,0%);stop-opacity:1;"/>
<stop offset="0.320313" style="stop-color:rgb(29.519653%,1.506042%,0%);stop-opacity:1;"/>
<stop offset="0.324219" style="stop-color:rgb(29.878235%,1.524353%,0%);stop-opacity:1;"/>
<stop offset="0.328125" style="stop-color:rgb(30.238342%,1.544189%,0%);stop-opacity:1;"/>
<stop offset="0.332031" style="stop-color:rgb(30.59845%,1.5625%,0%);stop-opacity:1;"/>
<stop offset="0.335938" style="stop-color:rgb(30.958557%,1.580811%,0%);stop-opacity:1;"/>
<stop offset="0.339844" style="stop-color:rgb(31.318665%,1.599121%,0%);stop-opacity:1;"/>
<stop offset="0.34375" style="stop-color:rgb(31.678772%,1.617432%,0%);stop-opacity:1;"/>
<stop offset="0.347656" style="stop-color:rgb(32.038879%,1.635742%,0%);stop-opacity:1;"/>
<stop offset="0.351563" style="stop-color:rgb(32.398987%,1.654053%,0%);stop-opacity:1;"/>
<stop offset="0.355469" style="stop-color:rgb(32.757568%,1.672363%,0%);stop-opacity:1;"/>
<stop offset="0.359375" style="stop-color:rgb(33.117676%,1.690674%,0%);stop-opacity:1;"/>
<stop offset="0.363281" style="stop-color:rgb(33.477783%,1.708984%,0%);stop-opacity:1;"/>
<stop offset="0.367188" style="stop-color:rgb(33.837891%,1.727295%,0%);stop-opacity:1;"/>
<stop offset="0.371094" style="stop-color:rgb(34.197998%,1.745605%,0%);stop-opacity:1;"/>
<stop offset="0.375" style="stop-color:rgb(34.558105%,1.763916%,0%);stop-opacity:1;"/>
<stop offset="0.378906" style="stop-color:rgb(34.918213%,1.782227%,0%);stop-opacity:1;"/>
<stop offset="0.382812" style="stop-color:rgb(35.27832%,1.800537%,0%);stop-opacity:1;"/>
<stop offset="0.386719" style="stop-color:rgb(35.638428%,1.818848%,0%);stop-opacity:1;"/>
<stop offset="0.390625" style="stop-color:rgb(35.998535%,1.837158%,0%);stop-opacity:1;"/>
<stop offset="0.394531" style="stop-color:rgb(36.357117%,1.855469%,0%);stop-opacity:1;"/>
<stop offset="0.398437" style="stop-color:rgb(36.717224%,1.873779%,0%);stop-opacity:1;"/>
<stop offset="0.402344" style="stop-color:rgb(37.077332%,1.89209%,0%);stop-opacity:1;"/>
<stop offset="0.40625" style="stop-color:rgb(37.437439%,1.9104%,0%);stop-opacity:1;"/>
<stop offset="0.410156" style="stop-color:rgb(37.797546%,1.928711%,0%);stop-opacity:1;"/>
<stop offset="0.414062" style="stop-color:rgb(38.157654%,1.948547%,0%);stop-opacity:1;"/>
<stop offset="0.417969" style="stop-color:rgb(38.517761%,1.966858%,0%);stop-opacity:1;"/>
<stop offset="0.421875" style="stop-color:rgb(38.877869%,1.985168%,0%);stop-opacity:1;"/>
<stop offset="0.425781" style="stop-color:rgb(39.23645%,2.003479%,0%);stop-opacity:1;"/>
<stop offset="0.429687" style="stop-color:rgb(39.596558%,2.02179%,0%);stop-opacity:1;"/>
<stop offset="0.433594" style="stop-color:rgb(39.956665%,2.0401%,0%);stop-opacity:1;"/>
<stop offset="0.4375" style="stop-color:rgb(40.316772%,2.058411%,0%);stop-opacity:1;"/>
<stop offset="0.441406" style="stop-color:rgb(40.67688%,2.076721%,0%);stop-opacity:1;"/>
<stop offset="0.445312" style="stop-color:rgb(41.036987%,2.095032%,0%);stop-opacity:1;"/>
<stop offset="0.449219" style="stop-color:rgb(41.397095%,2.113342%,0%);stop-opacity:1;"/>
<stop offset="0.453125" style="stop-color:rgb(41.757202%,2.131653%,0%);stop-opacity:1;"/>
<stop offset="0.457031" style="stop-color:rgb(42.11731%,2.149963%,0%);stop-opacity:1;"/>
<stop offset="0.460937" style="stop-color:rgb(42.477417%,2.168274%,0%);stop-opacity:1;"/>
<stop offset="0.464844" style="stop-color:rgb(42.835999%,2.186584%,0%);stop-opacity:1;"/>
<stop offset="0.46875" style="stop-color:rgb(43.196106%,2.204895%,0%);stop-opacity:1;"/>
<stop offset="0.472656" style="stop-color:rgb(43.556213%,2.223206%,0%);stop-opacity:1;"/>
<stop offset="0.476562" style="stop-color:rgb(43.916321%,2.241516%,0%);stop-opacity:1;"/>
<stop offset="0.480469" style="stop-color:rgb(44.276428%,2.259827%,0%);stop-opacity:1;"/>
<stop offset="0.484375" style="stop-color:rgb(44.636536%,2.278137%,0%);stop-opacity:1;"/>
<stop offset="0.488281" style="stop-color:rgb(44.996643%,2.296448%,0%);stop-opacity:1;"/>
<stop offset="0.492187" style="stop-color:rgb(45.35675%,2.314758%,0%);stop-opacity:1;"/>
<stop offset="0.496094" style="stop-color:rgb(45.715332%,2.333069%,0%);stop-opacity:1;"/>
<stop offset="0.5" style="stop-color:rgb(46.075439%,2.352905%,0%);stop-opacity:1;"/>
<stop offset="0.503906" style="stop-color:rgb(46.435547%,2.371216%,0%);stop-opacity:1;"/>
<stop offset="0.507812" style="stop-color:rgb(46.795654%,2.389526%,0%);stop-opacity:1;"/>
<stop offset="0.511719" style="stop-color:rgb(47.155762%,2.407837%,0%);stop-opacity:1;"/>
<stop offset="0.515625" style="stop-color:rgb(47.515869%,2.426147%,0%);stop-opacity:1;"/>
<stop offset="0.519531" style="stop-color:rgb(47.875977%,2.444458%,0%);stop-opacity:1;"/>
<stop offset="0.523437" style="stop-color:rgb(48.236084%,2.462769%,0%);stop-opacity:1;"/>
<stop offset="0.527344" style="stop-color:rgb(48.596191%,2.481079%,0%);stop-opacity:1;"/>
<stop offset="0.53125" style="stop-color:rgb(48.956299%,2.49939%,0%);stop-opacity:1;"/>
<stop offset="0.535156" style="stop-color:rgb(49.31488%,2.5177%,0%);stop-opacity:1;"/>
<stop offset="0.539062" style="stop-color:rgb(49.674988%,2.536011%,0%);stop-opacity:1;"/>
<stop offset="0.542969" style="stop-color:rgb(50.035095%,2.554321%,0%);stop-opacity:1;"/>
<stop offset="0.546875" style="stop-color:rgb(50.395203%,2.572632%,0%);stop-opacity:1;"/>
<stop offset="0.550781" style="stop-color:rgb(50.75531%,2.590942%,0%);stop-opacity:1;"/>
<stop offset="0.554687" style="stop-color:rgb(51.115417%,2.609253%,0%);stop-opacity:1;"/>
<stop offset="0.558594" style="stop-color:rgb(51.475525%,2.627563%,0%);stop-opacity:1;"/>
<stop offset="0.5625" style="stop-color:rgb(51.835632%,2.645874%,0%);stop-opacity:1;"/>
<stop offset="0.566406" style="stop-color:rgb(52.194214%,2.664185%,0%);stop-opacity:1;"/>
<stop offset="0.570312" style="stop-color:rgb(52.554321%,2.682495%,0%);stop-opacity:1;"/>
<stop offset="0.574219" style="stop-color:rgb(52.914429%,2.700806%,0%);stop-opacity:1;"/>
<stop offset="0.578125" style="stop-color:rgb(53.274536%,2.719116%,0%);stop-opacity:1;"/>
<stop offset="0.582031" style="stop-color:rgb(53.634644%,2.737427%,0%);stop-opacity:1;"/>
<stop offset="0.585937" style="stop-color:rgb(53.994751%,2.757263%,0%);stop-opacity:1;"/>
<stop offset="0.589844" style="stop-color:rgb(54.354858%,2.775574%,0%);stop-opacity:1;"/>
<stop offset="0.59375" style="stop-color:rgb(54.714966%,2.793884%,0%);stop-opacity:1;"/>
<stop offset="0.597656" style="stop-color:rgb(55.075073%,2.812195%,0%);stop-opacity:1;"/>
<stop offset="0.601562" style="stop-color:rgb(55.435181%,2.830505%,0%);stop-opacity:1;"/>
<stop offset="0.605469" style="stop-color:rgb(55.793762%,2.848816%,0%);stop-opacity:1;"/>
<stop offset="0.609375" style="stop-color:rgb(56.15387%,2.867126%,0%);stop-opacity:1;"/>
<stop offset="0.613281" style="stop-color:rgb(56.513977%,2.885437%,0%);stop-opacity:1;"/>
<stop offset="0.617187" style="stop-color:rgb(56.874084%,2.903748%,0%);stop-opacity:1;"/>
<stop offset="0.621094" style="stop-color:rgb(57.234192%,2.922058%,0%);stop-opacity:1;"/>
<stop offset="0.625" style="stop-color:rgb(57.594299%,2.940369%,0%);stop-opacity:1;"/>
<stop offset="0.628906" style="stop-color:rgb(57.954407%,2.958679%,0%);stop-opacity:1;"/>
<stop offset="0.632812" style="stop-color:rgb(58.314514%,2.97699%,0%);stop-opacity:1;"/>
<stop offset="0.636719" style="stop-color:rgb(58.674622%,2.9953%,0%);stop-opacity:1;"/>
<stop offset="0.640625" style="stop-color:rgb(59.034729%,3.013611%,0%);stop-opacity:1;"/>
<stop offset="0.644531" style="stop-color:rgb(59.393311%,3.031921%,0%);stop-opacity:1;"/>
<stop offset="0.648437" style="stop-color:rgb(59.753418%,3.050232%,0%);stop-opacity:1;"/>
<stop offset="0.652344" style="stop-color:rgb(60.113525%,3.068542%,0%);stop-opacity:1;"/>
<stop offset="0.65625" style="stop-color:rgb(60.473633%,3.086853%,0%);stop-opacity:1;"/>
<stop offset="0.660156" style="stop-color:rgb(60.83374%,3.105164%,0%);stop-opacity:1;"/>
<stop offset="0.664062" style="stop-color:rgb(61.193848%,3.123474%,0%);stop-opacity:1;"/>
<stop offset="0.667969" style="stop-color:rgb(61.553955%,3.141785%,0%);stop-opacity:1;"/>
<stop offset="0.671875" style="stop-color:rgb(61.914062%,3.161621%,0%);stop-opacity:1;"/>
<stop offset="0.675781" style="stop-color:rgb(62.272644%,3.179932%,0%);stop-opacity:1;"/>
<stop offset="0.679687" style="stop-color:rgb(62.632751%,3.198242%,0%);stop-opacity:1;"/>
<stop offset="0.683594" style="stop-color:rgb(62.992859%,3.216553%,0%);stop-opacity:1;"/>
<stop offset="0.6875" style="stop-color:rgb(63.352966%,3.234863%,0%);stop-opacity:1;"/>
<stop offset="0.691406" style="stop-color:rgb(63.713074%,3.253174%,0%);stop-opacity:1;"/>
<stop offset="0.695312" style="stop-color:rgb(64.073181%,3.271484%,0%);stop-opacity:1;"/>
<stop offset="0.699219" style="stop-color:rgb(64.433289%,3.289795%,0%);stop-opacity:1;"/>
<stop offset="0.703125" style="stop-color:rgb(64.793396%,3.308105%,0%);stop-opacity:1;"/>
<stop offset="0.707031" style="stop-color:rgb(65.153503%,3.326416%,0%);stop-opacity:1;"/>
<stop offset="0.710937" style="stop-color:rgb(65.513611%,3.344727%,0%);stop-opacity:1;"/>
<stop offset="0.714844" style="stop-color:rgb(65.872192%,3.363037%,0%);stop-opacity:1;"/>
<stop offset="0.71875" style="stop-color:rgb(66.2323%,3.381348%,0%);stop-opacity:1;"/>
<stop offset="0.722656" style="stop-color:rgb(66.592407%,3.399658%,0%);stop-opacity:1;"/>
<stop offset="0.726562" style="stop-color:rgb(66.952515%,3.417969%,0%);stop-opacity:1;"/>
<stop offset="0.730469" style="stop-color:rgb(67.312622%,3.436279%,0%);stop-opacity:1;"/>
<stop offset="0.734375" style="stop-color:rgb(67.672729%,3.45459%,0%);stop-opacity:1;"/>
<stop offset="0.738281" style="stop-color:rgb(68.032837%,3.4729%,0%);stop-opacity:1;"/>
<stop offset="0.742187" style="stop-color:rgb(68.392944%,3.491211%,0%);stop-opacity:1;"/>
<stop offset="0.746094" style="stop-color:rgb(68.753052%,3.509521%,0%);stop-opacity:1;"/>
<stop offset="0.75" style="stop-color:rgb(69.113159%,3.527832%,0%);stop-opacity:1;"/>
<stop offset="0.753906" style="stop-color:rgb(69.471741%,3.546143%,0%);stop-opacity:1;"/>
<stop offset="0.757812" style="stop-color:rgb(69.831848%,3.565979%,0%);stop-opacity:1;"/>
<stop offset="0.761719" style="stop-color:rgb(70.191956%,3.58429%,0%);stop-opacity:1;"/>
<stop offset="0.765625" style="stop-color:rgb(70.552063%,3.6026%,0%);stop-opacity:1;"/>
<stop offset="0.769531" style="stop-color:rgb(70.91217%,3.620911%,0%);stop-opacity:1;"/>
<stop offset="0.773437" style="stop-color:rgb(71.272278%,3.639221%,0%);stop-opacity:1;"/>
<stop offset="0.777344" style="stop-color:rgb(71.632385%,3.657532%,0%);stop-opacity:1;"/>
<stop offset="0.78125" style="stop-color:rgb(71.992493%,3.675842%,0%);stop-opacity:1;"/>
<stop offset="0.785156" style="stop-color:rgb(72.3526%,3.694153%,0%);stop-opacity:1;"/>
<stop offset="0.789062" style="stop-color:rgb(72.712708%,3.712463%,0%);stop-opacity:1;"/>
<stop offset="0.792969" style="stop-color:rgb(73.071289%,3.730774%,0%);stop-opacity:1;"/>
<stop offset="0.796875" style="stop-color:rgb(73.431396%,3.749084%,0%);stop-opacity:1;"/>
<stop offset="0.800781" style="stop-color:rgb(73.791504%,3.767395%,0%);stop-opacity:1;"/>
<stop offset="0.804687" style="stop-color:rgb(74.151611%,3.785706%,0%);stop-opacity:1;"/>
<stop offset="0.808594" style="stop-color:rgb(74.511719%,3.804016%,0%);stop-opacity:1;"/>
<stop offset="0.8125" style="stop-color:rgb(74.871826%,3.822327%,0%);stop-opacity:1;"/>
<stop offset="0.816406" style="stop-color:rgb(75.231934%,3.840637%,0%);stop-opacity:1;"/>
<stop offset="0.820312" style="stop-color:rgb(75.592041%,3.858948%,0%);stop-opacity:1;"/>
<stop offset="0.824219" style="stop-color:rgb(75.950623%,3.877258%,0%);stop-opacity:1;"/>
<stop offset="0.828125" style="stop-color:rgb(76.31073%,3.895569%,0%);stop-opacity:1;"/>
<stop offset="0.832031" style="stop-color:rgb(76.670837%,3.913879%,0%);stop-opacity:1;"/>
<stop offset="0.835937" style="stop-color:rgb(77.030945%,3.93219%,0%);stop-opacity:1;"/>
<stop offset="0.839844" style="stop-color:rgb(77.391052%,3.9505%,0%);stop-opacity:1;"/>
<stop offset="0.84375" style="stop-color:rgb(77.75116%,3.970337%,0%);stop-opacity:1;"/>
<stop offset="0.847656" style="stop-color:rgb(78.111267%,3.988647%,0%);stop-opacity:1;"/>
<stop offset="0.851562" style="stop-color:rgb(78.471375%,4.006958%,0%);stop-opacity:1;"/>
<stop offset="0.855469" style="stop-color:rgb(78.831482%,4.025269%,0%);stop-opacity:1;"/>
<stop offset="0.859375" style="stop-color:rgb(79.191589%,4.043579%,0%);stop-opacity:1;"/>
<stop offset="0.863281" style="stop-color:rgb(79.550171%,4.06189%,0%);stop-opacity:1;"/>
<stop offset="0.867187" style="stop-color:rgb(79.910278%,4.0802%,0%);stop-opacity:1;"/>
<stop offset="0.871094" style="stop-color:rgb(80.270386%,4.098511%,0%);stop-opacity:1;"/>
<stop offset="0.875" style="stop-color:rgb(80.630493%,4.116821%,0%);stop-opacity:1;"/>
<stop offset="0.878906" style="stop-color:rgb(80.990601%,4.135132%,0%);stop-opacity:1;"/>
<stop offset="0.882812" style="stop-color:rgb(81.350708%,4.153442%,0%);stop-opacity:1;"/>
<stop offset="0.886719" style="stop-color:rgb(81.710815%,4.171753%,0%);stop-opacity:1;"/>
<stop offset="0.890625" style="stop-color:rgb(82.070923%,4.190063%,0%);stop-opacity:1;"/>
<stop offset="0.894531" style="stop-color:rgb(82.43103%,4.208374%,0%);stop-opacity:1;"/>
<stop offset="0.898437" style="stop-color:rgb(82.791138%,4.226685%,0%);stop-opacity:1;"/>
<stop offset="0.902344" style="stop-color:rgb(83.149719%,4.244995%,0%);stop-opacity:1;"/>
<stop offset="0.90625" style="stop-color:rgb(83.509827%,4.263306%,0%);stop-opacity:1;"/>
<stop offset="0.910156" style="stop-color:rgb(83.869934%,4.281616%,0%);stop-opacity:1;"/>
<stop offset="0.914062" style="stop-color:rgb(84.230042%,4.299927%,0%);stop-opacity:1;"/>
<stop offset="0.917969" style="stop-color:rgb(84.590149%,4.318237%,0%);stop-opacity:1;"/>
<stop offset="0.921875" style="stop-color:rgb(84.950256%,4.336548%,0%);stop-opacity:1;"/>
<stop offset="0.925781" style="stop-color:rgb(85.310364%,4.354858%,0%);stop-opacity:1;"/>
<stop offset="0.929688" style="stop-color:rgb(85.670471%,4.374695%,0%);stop-opacity:1;"/>
<stop offset="0.933594" style="stop-color:rgb(86.029053%,4.393005%,0%);stop-opacity:1;"/>
<stop offset="0.9375" style="stop-color:rgb(86.38916%,4.411316%,0%);stop-opacity:1;"/>
<stop offset="0.941406" style="stop-color:rgb(86.749268%,4.429626%,0%);stop-opacity:1;"/>
<stop offset="0.945312" style="stop-color:rgb(87.109375%,4.447937%,0%);stop-opacity:1;"/>
<stop offset="0.949219" style="stop-color:rgb(87.469482%,4.466248%,0%);stop-opacity:1;"/>
<stop offset="0.953125" style="stop-color:rgb(87.82959%,4.484558%,0%);stop-opacity:1;"/>
<stop offset="0.957031" style="stop-color:rgb(88.189697%,4.502869%,0%);stop-opacity:1;"/>
<stop offset="0.960938" style="stop-color:rgb(88.549805%,4.521179%,0%);stop-opacity:1;"/>
<stop offset="0.964844" style="stop-color:rgb(88.909912%,4.53949%,0%);stop-opacity:1;"/>
<stop offset="0.96875" style="stop-color:rgb(89.27002%,4.5578%,0%);stop-opacity:1;"/>
<stop offset="0.972656" style="stop-color:rgb(89.628601%,4.576111%,0%);stop-opacity:1;"/>
<stop offset="0.976562" style="stop-color:rgb(89.988708%,4.594421%,0%);stop-opacity:1;"/>
<stop offset="0.980469" style="stop-color:rgb(90.348816%,4.612732%,0%);stop-opacity:1;"/>
<stop offset="0.984375" style="stop-color:rgb(90.708923%,4.631042%,0%);stop-opacity:1;"/>
<stop offset="0.988281" style="stop-color:rgb(91.069031%,4.649353%,0%);stop-opacity:1;"/>
<stop offset="0.992188" style="stop-color:rgb(91.429138%,4.667664%,0%);stop-opacity:1;"/>
<stop offset="0.996094" style="stop-color:rgb(91.789246%,4.685974%,0%);stop-opacity:1;"/>
<stop offset="1" style="stop-color:rgb(92.149353%,4.704285%,0%);stop-opacity:1;"/>
</linearGradient>
</defs>
<g id="surface1">
<path style=" stroke:none;fill-rule:nonzero;fill:rgb(0%,0%,0%);fill-opacity:1;" d="M 10.0625 47.277344 L 10.0625 18.929688 L 293.53125 18.929688 L 293.53125 47.277344 Z M 10.0625 47.277344 "/>
<g clip-path="url(#clip1)" clip-rule="nonzero">
<path style=" stroke:none;fill-rule:nonzero;fill:url(#linear0);" d="M 293.53125 47.277344 L 10.0625 47.277344 L 10.0625 18.929688 L 293.53125 18.929688 Z M 293.53125 47.277344 "/>
</g>
<path style="fill:none;stroke-width:0.3985;stroke-linecap:butt;stroke-linejoin:miter;stroke:rgb(0%,0%,0%);stroke-opacity:1;stroke-miterlimit:10;" d="M -0.0005 -0.00134375 L -0.0005 28.346312 L 283.46825 28.346312 L 283.46825 -0.00134375 Z M -0.0005 -0.00134375 " transform="matrix(1,0,0,-1,10.063,47.276)"/>
<path style="fill:none;stroke-width:0.3985;stroke-linecap:butt;stroke-linejoin:miter;stroke:rgb(0%,0%,0%);stroke-opacity:1;stroke-miterlimit:10;" d="M -0.0005 28.346312 L 1.417469 28.346312 " transform="matrix(1,0,0,-1,10.063,47.276)"/>
<g style="fill:rgb(0%,0%,0%);fill-opacity:1;">
  <use xlink:href="#glyph0-1" x="8.99" y="15.41"/>
</g>
<path style="fill:none;stroke-width:0.3985;stroke-linecap:butt;stroke-linejoin:miter;stroke:rgb(0%,0%,0%);stroke-opacity:1;stroke-miterlimit:10;" d="M 141.733875 28.346312 L 143.151844 28.346312 " transform="matrix(1,0,0,-1,10.063,47.276)"/>
<g style="fill:rgb(0%,0%,0%);fill-opacity:1;">
  <use xlink:href="#glyph0-2" x="150.722" y="15.41"/>
</g>
<path style="fill:none;stroke-width:0.3985;stroke-linecap:butt;stroke-linejoin:miter;stroke:rgb(0%,0%,0%);stroke-opacity:1;stroke-miterlimit:10;" d="M 283.46825 28.346312 L 284.886219 28.346312 " transform="matrix(1,0,0,-1,10.063,47.276)"/>
<g style="fill:rgb(0%,0%,0%);fill-opacity:1;">
  <use xlink:href="#glyph0-3" x="292.454" y="15.41"/>
</g>
<path style="fill:none;stroke-width:1.19553;stroke-linecap:butt;stroke-linejoin:miter;stroke:rgb(9.020996%,52.157593%,92.156982%);stroke-opacity:1;stroke-miterlimit:10;" d="M 75.120594 -34.016969 L 75.120594 28.346312 " transform="matrix(1,0,0,-1,10.063,47.276)"/>
<g style="fill:rgb(9.020996%,52.157593%,92.156982%);fill-opacity:1;">
  <use xlink:href="#glyph1-1" x="89.099" y="84.852"/>
  <use xlink:href="#glyph1-2" x="94.877308" y="84.852"/>
  <use xlink:href="#glyph1-3" x="97.228482" y="84.852"/>
  <use xlink:href="#glyph1-4" x="103.00679" y="84.852"/>
</g>
<g style="fill:rgb(9.020996%,52.157593%,92.156982%);fill-opacity:1;">
  <use xlink:href="#glyph1-5" x="111.335523" y="84.852"/>
</g>
<g style="fill:rgb(9.020996%,52.157593%,92.156982%);fill-opacity:1;">
  <use xlink:href="#glyph1-6" x="116.949448" y="84.852"/>
  <use xlink:href="#glyph1-7" x="119.340472" y="84.852"/>
  <use xlink:href="#glyph1-8" x="122.912064" y="84.852"/>
  <use xlink:href="#glyph1-9" x="128.471195" y="84.852"/>
  <use xlink:href="#glyph1-10" x="133.731448" y="84.852"/>
  <use xlink:href="#glyph1-10" x="138.045254" y="84.852"/>
</g>
<path style="fill:none;stroke-width:1.19553;stroke-linecap:butt;stroke-linejoin:miter;stroke:rgb(0%,0%,0%);stroke-opacity:1;stroke-miterlimit:10;" d="M -0.0005 -62.364625 L -0.0005 28.346312 " transform="matrix(1,0,0,-1,10.063,47.276)"/>
<g style="fill:rgb(0%,0%,0%);fill-opacity:1;">
  <use xlink:href="#glyph1-11" x="13.981" y="113.198"/>
</g>
<g style="fill:rgb(0%,0%,0%);fill-opacity:1;">
  <use xlink:href="#glyph1-12" x="21.198904" y="113.198"/>
  <use xlink:href="#glyph1-13" x="26.847698" y="113.198"/>
  <use xlink:href="#glyph1-14" x="31.79911" y="113.198"/>
</g>
</g>
</svg>
