<?xml version="1.0" encoding="UTF-8"?>
<svg xmlns="http://www.w3.org/2000/svg" xmlns:xlink="http://www.w3.org/1999/xlink" width="1272.436pt" height="662.302pt" viewBox="0 0 1272.436 662.302" version="1.1">
<defs>
<g>
<symbol overflow="visible" id="glyph0-0">
<path style="stroke:none;" d=""/>
</symbol>
<symbol overflow="visible" id="glyph0-1">
<path style="stroke:none;" d="M 0.75 -5.53125 L 0.75 -0.015625 L 1.453125 -0.015625 L 1.453125 -5.53125 Z M 0.75 -5.53125 "/>
</symbol>
<symbol overflow="visible" id="glyph0-2">
<path style="stroke:none;" d="M 1.21875 -3.03125 L 1.21875 -3.59375 L 0.640625 -3.59375 L 0.640625 -0.015625 L 1.265625 -0.015625 L 1.265625 -1.828125 C 1.265625 -2.296875 1.359375 -3.140625 2.0625 -3.140625 C 2.578125 -3.140625 2.859375 -2.828125 2.859375 -2.296875 C 2.859375 -2.203125 2.84375 -2.109375 2.84375 -2.015625 L 2.84375 -0.015625 L 3.46875 -0.015625 L 3.46875 -1.890625 C 3.46875 -2.046875 3.46875 -2.1875 3.46875 -2.328125 C 3.46875 -2.921875 3.328125 -3.640625 2.390625 -3.640625 C 1.875 -3.640625 1.515625 -3.390625 1.21875 -3.03125 Z M 1.21875 -3.03125 "/>
</symbol>
<symbol overflow="visible" id="glyph0-3">
<path style="stroke:none;" d="M 0.109375 -3.546875 C 0.140625 -3.4375 0.1875 -3.328125 0.234375 -3.234375 L 0.484375 -2.59375 C 0.78125 -1.796875 1.078125 -1.015625 1.390625 -0.234375 C 1.4375 -0.09375 1.453125 -0.015625 1.578125 -0.015625 L 2.109375 -0.015625 C 2.265625 -0.015625 2.46875 -0.71875 2.59375 -1.078125 C 2.8125 -1.625 3.03125 -2.1875 3.25 -2.734375 L 3.4375 -3.234375 C 3.46875 -3.34375 3.515625 -3.4375 3.546875 -3.546875 L 3.046875 -3.546875 C 2.953125 -3.546875 2.953125 -3.515625 2.921875 -3.453125 L 2.65625 -2.734375 C 2.40625 -2.078125 2.140625 -1.421875 1.921875 -0.75 C 1.890625 -0.640625 1.859375 -0.53125 1.84375 -0.40625 L 1.78125 -0.65625 L 1.53125 -1.4375 L 0.828125 -3.3125 L 0.71875 -3.53125 L 0.546875 -3.546875 Z M 0.109375 -3.546875 "/>
</symbol>
<symbol overflow="visible" id="glyph0-4">
<path style="stroke:none;" d="M 0.65625 -2.8125 C 0.765625 -2.875 0.875 -2.953125 1 -3.015625 C 1.265625 -3.15625 1.5625 -3.21875 1.875 -3.21875 C 2.359375 -3.21875 2.5625 -2.671875 2.5625 -2.265625 C 2.5625 -2.15625 2.5625 -2.0625 2.5625 -1.953125 C 1.75 -1.953125 0.34375 -1.78125 0.34375 -0.921875 C 0.34375 -0.421875 0.6875 0.078125 1.25 0.078125 C 1.703125 0.078125 2.234375 -0.015625 2.578125 -0.296875 L 2.578125 -0.015625 L 3.171875 -0.015625 L 3.171875 -2.234375 C 3.171875 -2.890625 2.84375 -3.625 1.96875 -3.6875 L 1.875 -3.6875 C 1.484375 -3.6875 1.125 -3.609375 0.75 -3.421875 C 0.703125 -3.390625 0.609375 -3.359375 0.609375 -3.28125 C 0.609375 -3.109375 0.640625 -2.96875 0.65625 -2.8125 Z M 2.5625 -1.546875 L 2.5625 -1.03125 C 2.5625 -0.578125 2.078125 -0.390625 1.671875 -0.390625 C 1.34375 -0.390625 0.921875 -0.5625 0.921875 -0.9375 C 0.9375 -1.328125 1.5625 -1.453125 1.859375 -1.484375 C 2.09375 -1.53125 2.328125 -1.546875 2.5625 -1.546875 Z M 2.5625 -1.546875 "/>
</symbol>
<symbol overflow="visible" id="glyph0-5">
<path style="stroke:none;" d="M 0.640625 -5.765625 L 0.640625 -0.015625 L 1.25 -0.015625 L 1.25 -5.765625 Z M 0.640625 -5.765625 "/>
</symbol>
<symbol overflow="visible" id="glyph0-6">
<path style="stroke:none;" d="M 0.640625 -3.546875 L 0.640625 -0.015625 L 1.25 -0.015625 L 1.25 -3.546875 Z M 0.59375 -5.421875 L 0.59375 -4.71875 L 1.296875 -4.71875 L 1.296875 -5.421875 Z M 0.59375 -5.421875 "/>
</symbol>
<symbol overflow="visible" id="glyph0-7">
<path style="stroke:none;" d="M 2.859375 -5.765625 L 2.859375 -3.203125 C 2.53125 -3.46875 2.109375 -3.640625 1.6875 -3.640625 C 0.75 -3.640625 0.28125 -2.5625 0.28125 -1.78125 C 0.28125 -0.9375 0.734375 0.078125 1.71875 0.078125 C 2.140625 0.078125 2.53125 -0.140625 2.84375 -0.421875 L 2.84375 -0.015625 L 3.453125 -0.015625 L 3.453125 -5.765625 Z M 0.90625 -1.640625 C 0.90625 -1.6875 0.90625 -1.75 0.90625 -1.796875 C 0.90625 -2.4375 1.28125 -3.140625 2.0625 -3.140625 C 2.375 -3.140625 2.84375 -2.9375 2.84375 -2.53125 C 2.84375 -2.4375 2.84375 -2.34375 2.84375 -2.25 L 2.84375 -1.0625 C 2.84375 -0.671875 2.28125 -0.40625 1.984375 -0.40625 C 1.296875 -0.40625 0.96875 -1.015625 0.90625 -1.640625 Z M 0.90625 -1.640625 "/>
</symbol>
<symbol overflow="visible" id="glyph0-8">
<path style="stroke:none;" d="M 1.21875 -2.875 L 1.21875 -3.59375 L 0.65625 -3.59375 L 0.65625 -0.015625 L 1.25 -0.015625 L 1.25 -1.609375 C 1.25 -2.203125 1.453125 -2.734375 2.140625 -3.015625 C 2.28125 -3.0625 2.453125 -3.09375 2.609375 -3.09375 L 2.609375 -3.640625 C 2.09375 -3.640625 1.40625 -3.3125 1.21875 -2.875 Z M 1.21875 -2.875 "/>
</symbol>
<symbol overflow="visible" id="glyph0-9">
<path style="stroke:none;" d="M 3.21875 -0.859375 C 2.828125 -0.609375 2.5 -0.40625 2.046875 -0.40625 C 1.421875 -0.40625 0.828125 -0.953125 0.828125 -1.75 L 3.296875 -1.75 C 3.296875 -2.296875 3.21875 -2.90625 2.828125 -3.3125 C 2.578125 -3.546875 2.234375 -3.6875 1.890625 -3.6875 C 1.453125 -3.6875 1.046875 -3.46875 0.765625 -3.15625 C 0.421875 -2.78125 0.265625 -2.28125 0.265625 -1.78125 L 0.265625 -1.734375 C 0.28125 -0.8125 1 0.078125 2.015625 0.078125 C 2.421875 0.078125 2.8125 -0.046875 3.140625 -0.25 C 3.203125 -0.296875 3.265625 -0.3125 3.265625 -0.390625 C 3.265625 -0.546875 3.234375 -0.703125 3.21875 -0.859375 Z M 0.875 -2.1875 C 0.984375 -2.671875 1.328125 -3.1875 1.890625 -3.1875 C 2.453125 -3.1875 2.78125 -2.71875 2.84375 -2.1875 Z M 0.875 -2.1875 "/>
</symbol>
<symbol overflow="visible" id="glyph0-10">
<path style="stroke:none;" d="M 0.09375 -2.015625 L 0.09375 -1.546875 L 2.203125 -1.546875 L 2.203125 -2.015625 Z M 0.09375 -2.015625 "/>
</symbol>
<symbol overflow="visible" id="glyph0-11">
<path style="stroke:none;" d="M 0.65625 -5.765625 L 0.65625 -0.015625 L 1.28125 -0.015625 L 1.28125 -0.375 C 1.578125 -0.109375 1.90625 0.078125 2.375 0.078125 C 3.296875 0.078125 3.828125 -0.953125 3.828125 -1.796875 C 3.828125 -2.515625 3.453125 -3.640625 2.515625 -3.640625 C 2.078125 -3.640625 1.59375 -3.453125 1.25 -3.15625 L 1.25 -5.765625 Z M 3.203125 -1.640625 C 3.140625 -1.015625 2.75 -0.390625 2.046875 -0.390625 C 1.71875 -0.390625 1.28125 -0.6875 1.28125 -1 L 1.28125 -2.21875 C 1.28125 -2.296875 1.265625 -2.40625 1.265625 -2.5 C 1.265625 -2.859375 1.734375 -3.140625 2.125 -3.140625 C 2.921875 -3.140625 3.203125 -2.375 3.203125 -1.765625 C 3.203125 -1.734375 3.203125 -1.6875 3.203125 -1.640625 Z M 3.203125 -1.640625 "/>
</symbol>
<symbol overflow="visible" id="glyph0-12">
<path style="stroke:none;" d="M 3.265625 -0.859375 C 3.109375 -0.765625 2.96875 -0.671875 2.828125 -0.59375 C 2.578125 -0.484375 2.265625 -0.4375 1.984375 -0.4375 L 1.921875 -0.4375 C 1.21875 -0.5 0.90625 -1.171875 0.90625 -1.78125 C 0.90625 -2.4375 1.25 -3.171875 2.03125 -3.171875 C 2.359375 -3.171875 2.703125 -3.109375 3 -2.921875 C 3.0625 -2.890625 3.109375 -2.84375 3.171875 -2.8125 C 3.1875 -2.96875 3.265625 -3.125 3.265625 -3.28125 C 3.265625 -3.625 2.03125 -3.6875 2.03125 -3.6875 C 0.953125 -3.6875 0.28125 -2.71875 0.28125 -1.765625 L 0.28125 -1.703125 C 0.296875 -0.796875 1.015625 0.078125 1.984375 0.078125 C 2.421875 0.078125 2.828125 -0.03125 3.203125 -0.25 C 3.25 -0.28125 3.3125 -0.296875 3.3125 -0.375 C 3.3125 -0.53125 3.265625 -0.6875 3.265625 -0.859375 Z M 3.265625 -0.859375 "/>
</symbol>
<symbol overflow="visible" id="glyph0-13">
<path style="stroke:none;" d="M 0.65625 -5.765625 L 0.65625 -0.015625 L 1.21875 -0.015625 L 1.21875 -1.015625 L 1.234375 -1.125 L 1.859375 -1.78125 L 3.09375 -0.03125 L 3.75 -0.015625 C 3.625 -0.234375 3.453125 -0.453125 3.296875 -0.65625 C 3.078125 -0.96875 2.859375 -1.296875 2.640625 -1.609375 L 2.34375 -2.015625 C 2.3125 -2.0625 2.25 -2.125 2.25 -2.171875 C 2.265625 -2.21875 2.3125 -2.265625 2.34375 -2.296875 L 2.609375 -2.5625 C 2.8125 -2.75 3.015625 -2.96875 3.21875 -3.171875 C 3.328125 -3.296875 3.46875 -3.40625 3.578125 -3.546875 L 2.875 -3.53125 L 1.234375 -1.890625 L 1.234375 -5.765625 Z M 0.65625 -5.765625 "/>
</symbol>
<symbol overflow="visible" id="glyph0-14">
<path style="stroke:none;" d="M 0.84375 -4.5625 L 0.84375 -3.546875 L 0.140625 -3.546875 L 0.140625 -3.078125 L 0.828125 -3.078125 L 0.828125 -0.96875 C 0.828125 -0.53125 0.921875 0.078125 1.484375 0.078125 C 1.890625 0.078125 2.28125 -0.03125 2.65625 -0.21875 L 2.53125 -0.6875 C 2.28125 -0.53125 2.09375 -0.4375 1.796875 -0.4375 C 1.4375 -0.4375 1.390625 -0.828125 1.390625 -1.09375 L 1.390625 -3.078125 L 2.515625 -3.078125 L 2.515625 -3.546875 L 1.390625 -3.546875 L 1.390625 -4.5625 Z M 0.84375 -4.5625 "/>
</symbol>
<symbol overflow="visible" id="glyph0-15">
<path style="stroke:none;" d="M 0.109375 -5.53125 C 0.15625 -5.390625 0.234375 -5.25 0.28125 -5.09375 C 0.921875 -3.421875 1.59375 -1.75 2.25 -0.09375 C 2.265625 -0.0625 2.28125 -0.015625 2.3125 -0.015625 L 2.828125 -0.015625 C 2.859375 -0.015625 2.890625 0 2.921875 0 C 3.09375 0 3.34375 -0.828125 3.5 -1.25 C 4 -2.546875 4.53125 -3.8125 5.03125 -5.109375 C 5.078125 -5.25 5.140625 -5.390625 5.203125 -5.53125 L 4.65625 -5.53125 C 4.546875 -5.53125 4.5625 -5.46875 4.53125 -5.40625 L 4.078125 -4.25 C 3.640625 -3.15625 3.203125 -2.09375 2.84375 -0.984375 C 2.78125 -0.84375 2.734375 -0.703125 2.71875 -0.5625 C 2.171875 -2.203125 1.53125 -3.8125 0.90625 -5.421875 C 0.875 -5.484375 0.875 -5.53125 0.78125 -5.53125 Z M 0.109375 -5.53125 "/>
</symbol>
</g>
<clipPath id="clip1">
  <path d="M 1223 435 L 1272.4375 435 L 1272.4375 490 L 1223 490 Z M 1223 435 "/>
</clipPath>
<clipPath id="clip2">
  <path d="M 1237 455 L 1272.4375 455 L 1272.4375 504 L 1237 504 Z M 1237 455 "/>
</clipPath>
</defs>
<g id="surface1">
<path style="fill-rule:nonzero;fill:rgb(92.156982%,4.705811%,0%);fill-opacity:1;stroke-width:1.19553;stroke-linecap:butt;stroke-linejoin:miter;stroke:rgb(0%,0%,0%);stroke-opacity:1;stroke-miterlimit:10;" d="M -273.4995 0.0015625 C -273.4995 5.501562 -277.960437 9.9625 -283.464344 9.9625 C -288.964344 9.9625 -293.425281 5.501562 -293.425281 0.0015625 C -293.425281 -5.502344 -288.964344 -9.963281 -283.464344 -9.963281 C -277.960437 -9.963281 -273.4995 -5.502344 -273.4995 0.0015625 Z M -273.4995 0.0015625 " transform="matrix(1,0,0,-1,630.312,37.4)"/>
<path style="fill-rule:nonzero;fill:rgb(9.020996%,52.157593%,92.156982%);fill-opacity:1;stroke-width:0.3985;stroke-linecap:butt;stroke-linejoin:miter;stroke:rgb(9.020996%,52.157593%,92.156982%);stroke-opacity:1;stroke-miterlimit:10;" d="M 0.000804688 7.085414 L 7.085766 -2.836461 L 28.345531 17.007289 L 7.085766 1.416469 Z M 0.000804688 7.085414 " transform="matrix(0.8,0,0,-0.8,357.2142,24.7738)"/>
<path style="fill-rule:nonzero;fill:rgb(0%,0%,0%);fill-opacity:1;stroke-width:1.19553;stroke-linecap:butt;stroke-linejoin:miter;stroke:rgb(0%,0%,0%);stroke-opacity:1;stroke-miterlimit:10;" d="M -314.90575 -24.361719 L -322.878406 -24.361719 L -322.878406 -32.330469 L -314.90575 -32.330469 Z M -314.90575 -24.361719 " transform="matrix(1,0,0,-1,630.312,37.4)"/>
<path style="fill:none;stroke-width:1.19553;stroke-linecap:butt;stroke-linejoin:miter;stroke:rgb(0%,0%,0%);stroke-opacity:1;stroke-miterlimit:10;" d="M -291.616687 -6.521875 L -314.429187 -24.775781 " transform="matrix(1,0,0,-1,630.312,37.4)"/>
<path style="fill-rule:nonzero;fill:rgb(0%,0%,0%);fill-opacity:1;stroke-width:1.19553;stroke-linecap:butt;stroke-linejoin:miter;stroke:rgb(0%,0%,0%);stroke-opacity:1;stroke-miterlimit:10;" d="M -244.042469 -24.361719 L -252.011219 -24.361719 L -252.011219 -32.330469 L -244.042469 -32.330469 Z M -244.042469 -24.361719 " transform="matrix(1,0,0,-1,630.312,37.4)"/>
<path style="fill:none;stroke-width:1.19553;stroke-linecap:butt;stroke-linejoin:miter;stroke:rgb(0%,0%,0%);stroke-opacity:1;stroke-miterlimit:10;" d="M -275.312 -6.521875 L -252.487781 -24.779688 " transform="matrix(1,0,0,-1,630.312,37.4)"/>
<path style="fill-rule:nonzero;fill:rgb(0%,0%,0%);fill-opacity:1;stroke-width:1.19553;stroke-linecap:butt;stroke-linejoin:miter;stroke:rgb(0%,0%,0%);stroke-opacity:1;stroke-miterlimit:10;" d="M 293.426281 0.0015625 C 293.426281 5.501562 288.965344 9.9625 283.465344 9.9625 C 277.961438 9.9625 273.5005 5.501562 273.5005 0.0015625 C 273.5005 -5.502344 277.961438 -9.963281 283.465344 -9.963281 C 288.965344 -9.963281 293.426281 -5.502344 293.426281 0.0015625 Z M 293.426281 0.0015625 " transform="matrix(1,0,0,-1,630.312,37.4)"/>
<path style="fill-rule:nonzero;fill:rgb(9.020996%,52.157593%,92.156982%);fill-opacity:1;stroke-width:0.3985;stroke-linecap:butt;stroke-linejoin:miter;stroke:rgb(9.020996%,52.157593%,92.156982%);stroke-opacity:1;stroke-miterlimit:10;" d="M -0.0015 7.085414 L 7.088344 -2.836461 L 28.348109 17.007289 L 7.088344 1.416469 Z M -0.0015 7.085414 " transform="matrix(0.8,0,0,-0.8,924.1262,24.7738)"/>
<path style="fill-rule:nonzero;fill:rgb(0%,0%,0%);fill-opacity:1;stroke-width:1.19553;stroke-linecap:butt;stroke-linejoin:miter;stroke:rgb(0%,0%,0%);stroke-opacity:1;stroke-miterlimit:10;" d="M 252.012219 -24.361719 L 244.039563 -24.361719 L 244.039563 -32.330469 L 252.012219 -32.330469 Z M 252.012219 -24.361719 " transform="matrix(1,0,0,-1,630.312,37.4)"/>
<path style="fill:none;stroke-width:1.19553;stroke-linecap:butt;stroke-linejoin:miter;stroke:rgb(0%,0%,0%);stroke-opacity:1;stroke-miterlimit:10;" d="M 275.309094 -6.521875 L 252.488781 -24.779688 " transform="matrix(1,0,0,-1,630.312,37.4)"/>
<path style="fill-rule:nonzero;fill:rgb(0%,0%,0%);fill-opacity:1;stroke-width:1.19553;stroke-linecap:butt;stroke-linejoin:miter;stroke:rgb(0%,0%,0%);stroke-opacity:1;stroke-miterlimit:10;" d="M 322.879406 -24.361719 L 314.90675 -24.361719 L 314.90675 -32.330469 L 322.879406 -32.330469 Z M 322.879406 -24.361719 " transform="matrix(1,0,0,-1,630.312,37.4)"/>
<path style="fill:none;stroke-width:1.19553;stroke-linecap:butt;stroke-linejoin:miter;stroke:rgb(0%,0%,0%);stroke-opacity:1;stroke-miterlimit:10;" d="M 291.617688 -6.521875 L 314.430188 -24.775781 " transform="matrix(1,0,0,-1,630.312,37.4)"/>
<path style="fill-rule:nonzero;fill:rgb(92.156982%,4.705811%,0%);fill-opacity:1;stroke-width:1.19553;stroke-linecap:butt;stroke-linejoin:miter;stroke:rgb(0%,0%,0%);stroke-opacity:1;stroke-miterlimit:10;" d="M -556.964344 -141.732813 C -556.964344 -136.228906 -561.425281 -131.767969 -566.929187 -131.767969 C -572.429187 -131.767969 -576.890125 -136.228906 -576.890125 -141.732813 C -576.890125 -147.232813 -572.429187 -151.69375 -566.929187 -151.69375 C -561.425281 -151.69375 -556.964344 -147.232813 -556.964344 -141.732813 Z M -556.964344 -141.732813 " transform="matrix(1,0,0,-1,630.312,37.4)"/>
<path style="fill:none;stroke-width:0.88535;stroke-linecap:butt;stroke-linejoin:miter;stroke:rgb(92.156982%,4.705811%,0%);stroke-opacity:1;stroke-miterlimit:10;" d="M -0.00034375 0.00147656 L 6.195945 6.197766 M -0.00034375 6.197766 L 6.195945 0.00147656 " transform="matrix(0.8,0,0,-0.8,73.9534,168.5754)"/>
<path style="fill-rule:nonzero;fill:rgb(92.156982%,4.705811%,0%);fill-opacity:1;stroke-width:1.19553;stroke-linecap:butt;stroke-linejoin:miter;stroke:rgb(0%,0%,0%);stroke-opacity:1;stroke-miterlimit:10;" d="M -592.390125 -170.076563 C -592.390125 -164.572656 -596.851062 -160.111719 -602.351062 -160.111719 C -607.854969 -160.111719 -612.315906 -164.572656 -612.315906 -170.076563 C -612.315906 -175.576563 -607.854969 -180.0375 -602.351062 -180.0375 C -596.851062 -180.0375 -592.390125 -175.576563 -592.390125 -170.076563 Z M -592.390125 -170.076563 " transform="matrix(1,0,0,-1,630.312,37.4)"/>
<path style="fill:none;stroke-width:1.19553;stroke-linecap:butt;stroke-linejoin:miter;stroke:rgb(0%,0%,0%);stroke-opacity:1;stroke-miterlimit:10;" d="M -575.081531 -148.25625 L -594.198719 -163.553125 " transform="matrix(1,0,0,-1,630.312,37.4)"/>
<path style="fill-rule:nonzero;fill:rgb(0%,0%,0%);fill-opacity:1;stroke-width:1.19553;stroke-linecap:butt;stroke-linejoin:miter;stroke:rgb(0%,0%,0%);stroke-opacity:1;stroke-miterlimit:10;" d="M -616.081531 -194.435938 L -624.054187 -194.435938 L -624.054187 -202.408594 L -616.081531 -202.408594 Z M -616.081531 -194.435938 " transform="matrix(1,0,0,-1,630.312,37.4)"/>
<path style="fill:none;stroke-width:1.19553;stroke-linecap:butt;stroke-linejoin:miter;stroke:rgb(0%,0%,0%);stroke-opacity:1;stroke-miterlimit:10;" d="M -607.886219 -178.928125 L -617.28075 -193.959375 " transform="matrix(1,0,0,-1,630.312,37.4)"/>
<path style="fill-rule:nonzero;fill:rgb(0%,0%,0%);fill-opacity:1;stroke-width:1.19553;stroke-linecap:butt;stroke-linejoin:miter;stroke:rgb(0%,0%,0%);stroke-opacity:1;stroke-miterlimit:10;" d="M -580.651844 -194.435938 L -588.620594 -194.435938 L -588.620594 -202.408594 L -580.651844 -202.408594 Z M -580.651844 -194.435938 " transform="matrix(1,0,0,-1,630.312,37.4)"/>
<path style="fill:none;stroke-width:1.19553;stroke-linecap:butt;stroke-linejoin:miter;stroke:rgb(0%,0%,0%);stroke-opacity:1;stroke-miterlimit:10;" d="M -596.815906 -178.928125 L -587.425281 -193.959375 " transform="matrix(1,0,0,-1,630.312,37.4)"/>
<path style="fill-rule:nonzero;fill:rgb(0%,0%,0%);fill-opacity:1;stroke-width:1.19553;stroke-linecap:butt;stroke-linejoin:miter;stroke:rgb(0%,0%,0%);stroke-opacity:1;stroke-miterlimit:10;" d="M -527.4995 -166.092188 L -535.472156 -166.092188 L -535.472156 -174.060938 L -527.4995 -174.060938 Z M -527.4995 -166.092188 " transform="matrix(1,0,0,-1,630.312,37.4)"/>
<path style="fill:none;stroke-width:1.19553;stroke-linecap:butt;stroke-linejoin:miter;stroke:rgb(0%,0%,0%);stroke-opacity:1;stroke-miterlimit:10;" d="M -558.772937 -148.252344 L -535.948719 -166.510156 " transform="matrix(1,0,0,-1,630.312,37.4)"/>
<path style="fill-rule:nonzero;fill:rgb(92.156982%,4.705811%,0%);fill-opacity:1;stroke-width:1.19553;stroke-linecap:butt;stroke-linejoin:miter;stroke:rgb(0%,0%,0%);stroke-opacity:1;stroke-miterlimit:10;" d="M -443.577625 -226.771875 C -443.577625 -221.267969 -448.038562 -216.807031 -453.542469 -216.807031 C -459.042469 -216.807031 -463.503406 -221.267969 -463.503406 -226.771875 C -463.503406 -232.271875 -459.042469 -236.732813 -453.542469 -236.732813 C -448.038562 -236.732813 -443.577625 -232.271875 -443.577625 -226.771875 Z M -443.577625 -226.771875 " transform="matrix(1,0,0,-1,630.312,37.4)"/>
<path style="fill:none;stroke-width:0.88535;stroke-linecap:butt;stroke-linejoin:miter;stroke:rgb(92.156982%,4.705811%,0%);stroke-opacity:1;stroke-miterlimit:10;" d="M 0.000671875 -0.00210156 L 6.196961 6.19907 M 0.000671875 6.19907 L 6.196961 -0.00210156 " transform="matrix(0.8,0,0,-0.8,187.3354,253.6116)"/>
<path style="fill-rule:nonzero;fill:rgb(0%,0%,0%);fill-opacity:1;stroke-width:1.19553;stroke-linecap:butt;stroke-linejoin:miter;stroke:rgb(0%,0%,0%);stroke-opacity:1;stroke-miterlimit:10;" d="M -479.003406 -255.115625 C -479.003406 -249.611719 -483.464344 -245.150781 -488.96825 -245.150781 C -494.472156 -245.150781 -498.929187 -249.611719 -498.929187 -255.115625 C -498.929187 -260.615625 -494.472156 -265.076563 -488.96825 -265.076563 C -483.464344 -265.076563 -479.003406 -260.615625 -479.003406 -255.115625 Z M -479.003406 -255.115625 " transform="matrix(1,0,0,-1,630.312,37.4)"/>
<path style="fill:none;stroke-width:1.19553;stroke-linecap:butt;stroke-linejoin:miter;stroke:rgb(0%,0%,0%);stroke-opacity:1;stroke-miterlimit:10;" d="M -461.694812 -233.295313 L -480.815906 -248.592188 " transform="matrix(1,0,0,-1,630.312,37.4)"/>
<path style="fill-rule:nonzero;fill:rgb(0%,0%,0%);fill-opacity:1;stroke-width:1.19553;stroke-linecap:butt;stroke-linejoin:miter;stroke:rgb(0%,0%,0%);stroke-opacity:1;stroke-miterlimit:10;" d="M -502.698719 -279.475 L -510.671375 -279.475 L -510.671375 -287.44375 L -502.698719 -287.44375 Z M -502.698719 -279.475 " transform="matrix(1,0,0,-1,630.312,37.4)"/>
<path style="fill:none;stroke-width:1.19553;stroke-linecap:butt;stroke-linejoin:miter;stroke:rgb(0%,0%,0%);stroke-opacity:1;stroke-miterlimit:10;" d="M -494.503406 -263.967188 L -503.897937 -278.998438 " transform="matrix(1,0,0,-1,630.312,37.4)"/>
<path style="fill-rule:nonzero;fill:rgb(0%,0%,0%);fill-opacity:1;stroke-width:1.19553;stroke-linecap:butt;stroke-linejoin:miter;stroke:rgb(0%,0%,0%);stroke-opacity:1;stroke-miterlimit:10;" d="M -467.265125 -279.475 L -475.237781 -279.475 L -475.237781 -287.44375 L -467.265125 -287.44375 Z M -467.265125 -279.475 " transform="matrix(1,0,0,-1,630.312,37.4)"/>
<path style="fill:none;stroke-width:1.19553;stroke-linecap:butt;stroke-linejoin:miter;stroke:rgb(0%,0%,0%);stroke-opacity:1;stroke-miterlimit:10;" d="M -483.433094 -263.967188 L -474.038562 -278.998438 " transform="matrix(1,0,0,-1,630.312,37.4)"/>
<path style="fill-rule:nonzero;fill:rgb(0%,0%,0%);fill-opacity:1;stroke-width:1.19553;stroke-linecap:butt;stroke-linejoin:miter;stroke:rgb(0%,0%,0%);stroke-opacity:1;stroke-miterlimit:10;" d="M -408.140125 -255.115625 C -408.140125 -249.611719 -412.601062 -245.150781 -418.101062 -245.150781 C -423.604969 -245.150781 -428.065906 -249.611719 -428.065906 -255.115625 C -428.065906 -260.615625 -423.604969 -265.076563 -418.101062 -265.076563 C -412.601062 -265.076563 -408.140125 -260.615625 -408.140125 -255.115625 Z M -408.140125 -255.115625 " transform="matrix(1,0,0,-1,630.312,37.4)"/>
<path style="fill:none;stroke-width:1.19553;stroke-linecap:butt;stroke-linejoin:miter;stroke:rgb(0%,0%,0%);stroke-opacity:1;stroke-miterlimit:10;" d="M -445.386219 -233.291406 L -426.257312 -248.592188 " transform="matrix(1,0,0,-1,630.312,37.4)"/>
<path style="fill-rule:nonzero;fill:rgb(0%,0%,0%);fill-opacity:1;stroke-width:1.19553;stroke-linecap:butt;stroke-linejoin:miter;stroke:rgb(0%,0%,0%);stroke-opacity:1;stroke-miterlimit:10;" d="M -425.854969 -283.459375 C -425.854969 -277.959375 -430.315906 -273.498438 -435.819812 -273.498438 C -441.319812 -273.498438 -445.78075 -277.959375 -445.78075 -283.459375 C -445.78075 -288.963281 -441.319812 -293.424219 -435.819812 -293.424219 C -430.315906 -293.424219 -425.854969 -288.963281 -425.854969 -283.459375 Z M -425.854969 -283.459375 " transform="matrix(1,0,0,-1,630.312,37.4)"/>
<path style="fill:none;stroke-width:1.19553;stroke-linecap:butt;stroke-linejoin:miter;stroke:rgb(0%,0%,0%);stroke-opacity:1;stroke-miterlimit:10;" d="M -423.636219 -263.967188 L -430.284656 -274.607813 " transform="matrix(1,0,0,-1,630.312,37.4)"/>
<path style="fill-rule:nonzero;fill:rgb(0%,0%,0%);fill-opacity:1;stroke-width:1.19553;stroke-linecap:butt;stroke-linejoin:miter;stroke:rgb(0%,0%,0%);stroke-opacity:1;stroke-miterlimit:10;" d="M -443.644031 -307.822656 L -451.612781 -307.822656 L -451.612781 -315.791406 L -443.644031 -315.791406 Z M -443.644031 -307.822656 " transform="matrix(1,0,0,-1,630.312,37.4)"/>
<path style="fill:none;stroke-width:1.19553;stroke-linecap:butt;stroke-linejoin:miter;stroke:rgb(0%,0%,0%);stroke-opacity:1;stroke-miterlimit:10;" d="M -439.835437 -293.096094 L -445.769031 -307.342188 " transform="matrix(1,0,0,-1,630.312,37.4)"/>
<path style="fill-rule:nonzero;fill:rgb(0%,0%,0%);fill-opacity:1;stroke-width:1.19553;stroke-linecap:butt;stroke-linejoin:miter;stroke:rgb(0%,0%,0%);stroke-opacity:1;stroke-miterlimit:10;" d="M -420.022937 -307.822656 L -427.991687 -307.822656 L -427.991687 -315.791406 L -420.022937 -315.791406 Z M -420.022937 -307.822656 " transform="matrix(1,0,0,-1,630.312,37.4)"/>
<path style="fill:none;stroke-width:1.19553;stroke-linecap:butt;stroke-linejoin:miter;stroke:rgb(0%,0%,0%);stroke-opacity:1;stroke-miterlimit:10;" d="M -431.804187 -293.096094 L -425.866687 -307.342188 " transform="matrix(1,0,0,-1,630.312,37.4)"/>
<path style="fill-rule:nonzero;fill:rgb(0%,0%,0%);fill-opacity:1;stroke-width:1.19553;stroke-linecap:butt;stroke-linejoin:miter;stroke:rgb(0%,0%,0%);stroke-opacity:1;stroke-miterlimit:10;" d="M -396.401844 -279.475 L -404.370594 -279.475 L -404.370594 -287.44375 L -396.401844 -287.44375 Z M -396.401844 -279.475 " transform="matrix(1,0,0,-1,630.312,37.4)"/>
<path style="fill:none;stroke-width:1.19553;stroke-linecap:butt;stroke-linejoin:miter;stroke:rgb(0%,0%,0%);stroke-opacity:1;stroke-miterlimit:10;" d="M -412.569812 -263.967188 L -403.175281 -278.998438 " transform="matrix(1,0,0,-1,630.312,37.4)"/>
<path style="fill-rule:nonzero;fill:rgb(0%,0%,0%);fill-opacity:1;stroke-width:1.19553;stroke-linecap:butt;stroke-linejoin:miter;stroke:rgb(0%,0%,0%);stroke-opacity:1;stroke-miterlimit:10;" d="M 576.891125 -141.732813 C 576.891125 -136.228906 572.430188 -131.767969 566.926281 -131.767969 C 561.426281 -131.767969 556.965344 -136.228906 556.965344 -141.732813 C 556.965344 -147.232813 561.426281 -151.69375 566.926281 -151.69375 C 572.430188 -151.69375 576.891125 -147.232813 576.891125 -141.732813 Z M 576.891125 -141.732813 " transform="matrix(1,0,0,-1,630.312,37.4)"/>
<path style="fill:none;stroke-width:0.88535;stroke-linecap:butt;stroke-linejoin:miter;stroke:rgb(92.156982%,4.705811%,0%);stroke-opacity:1;stroke-miterlimit:10;" d="M 0.00117969 0.00147656 L 6.197469 6.197766 M 0.00117969 6.197766 L 6.197469 0.00147656 " transform="matrix(0.8,0,0,-0.8,1207.7764,168.5754)"/>
<path style="fill-rule:nonzero;fill:rgb(0%,0%,0%);fill-opacity:1;stroke-width:1.19553;stroke-linecap:butt;stroke-linejoin:miter;stroke:rgb(0%,0%,0%);stroke-opacity:1;stroke-miterlimit:10;" d="M 535.46925 -166.092188 L 527.5005 -166.092188 L 527.5005 -174.060938 L 535.46925 -174.060938 Z M 535.46925 -166.092188 " transform="matrix(1,0,0,-1,630.312,37.4)"/>
<path style="fill:none;stroke-width:1.19553;stroke-linecap:butt;stroke-linejoin:miter;stroke:rgb(0%,0%,0%);stroke-opacity:1;stroke-miterlimit:10;" d="M 558.773938 -148.252344 L 535.949719 -166.510156 " transform="matrix(1,0,0,-1,630.312,37.4)"/>
<path style="fill-rule:nonzero;fill:rgb(0%,0%,0%);fill-opacity:1;stroke-width:1.19553;stroke-linecap:butt;stroke-linejoin:miter;stroke:rgb(0%,0%,0%);stroke-opacity:1;stroke-miterlimit:10;" d="M 612.313 -170.076563 C 612.313 -164.572656 607.855969 -160.111719 602.352063 -160.111719 C 596.848156 -160.111719 592.387219 -164.572656 592.387219 -170.076563 C 592.387219 -175.576563 596.848156 -180.0375 602.352063 -180.0375 C 607.855969 -180.0375 612.313 -175.576563 612.313 -170.076563 Z M 612.313 -170.076563 " transform="matrix(1,0,0,-1,630.312,37.4)"/>
<path style="fill:none;stroke-width:1.19553;stroke-linecap:butt;stroke-linejoin:miter;stroke:rgb(0%,0%,0%);stroke-opacity:1;stroke-miterlimit:10;" d="M 575.078625 -148.25625 L 594.199719 -163.553125 " transform="matrix(1,0,0,-1,630.312,37.4)"/>
<path style="fill-rule:nonzero;fill:rgb(0%,0%,0%);fill-opacity:1;stroke-width:1.19553;stroke-linecap:butt;stroke-linejoin:miter;stroke:rgb(0%,0%,0%);stroke-opacity:1;stroke-miterlimit:10;" d="M 588.621594 -194.435938 L 580.648938 -194.435938 L 580.648938 -202.408594 L 588.621594 -202.408594 Z M 588.621594 -194.435938 " transform="matrix(1,0,0,-1,630.312,37.4)"/>
<path style="fill:none;stroke-width:1.19553;stroke-linecap:butt;stroke-linejoin:miter;stroke:rgb(0%,0%,0%);stroke-opacity:1;stroke-miterlimit:10;" d="M 596.816906 -178.928125 L 587.422375 -193.959375 " transform="matrix(1,0,0,-1,630.312,37.4)"/>
<path style="fill-rule:nonzero;fill:rgb(0%,0%,0%);fill-opacity:1;stroke-width:1.19553;stroke-linecap:butt;stroke-linejoin:miter;stroke:rgb(0%,0%,0%);stroke-opacity:1;stroke-miterlimit:10;" d="M 624.055188 -194.435938 L 616.082531 -194.435938 L 616.082531 -202.408594 L 624.055188 -202.408594 Z M 624.055188 -194.435938 " transform="matrix(1,0,0,-1,630.312,37.4)"/>
<path style="fill:none;stroke-width:1.19553;stroke-linecap:butt;stroke-linejoin:miter;stroke:rgb(0%,0%,0%);stroke-opacity:1;stroke-miterlimit:10;" d="M 607.887219 -178.928125 L 617.277844 -193.959375 " transform="matrix(1,0,0,-1,630.312,37.4)"/>
<path style="fill-rule:nonzero;fill:rgb(0%,0%,0%);fill-opacity:1;stroke-width:1.19553;stroke-linecap:butt;stroke-linejoin:miter;stroke:rgb(0%,0%,0%);stroke-opacity:1;stroke-miterlimit:10;" d="M 463.504406 -226.771875 C 463.504406 -221.267969 459.043469 -216.807031 453.543469 -216.807031 C 448.039563 -216.807031 443.578625 -221.267969 443.578625 -226.771875 C 443.578625 -232.271875 448.039563 -236.732813 453.543469 -236.732813 C 459.043469 -236.732813 463.504406 -232.271875 463.504406 -226.771875 Z M 463.504406 -226.771875 " transform="matrix(1,0,0,-1,630.312,37.4)"/>
<path style="fill:none;stroke-width:0.88535;stroke-linecap:butt;stroke-linejoin:miter;stroke:rgb(92.156982%,4.705811%,0%);stroke-opacity:1;stroke-miterlimit:10;" d="M 0.00116406 -0.00210156 L 6.197453 6.19907 M 0.00116406 6.19907 L 6.197453 -0.00210156 " transform="matrix(0.8,0,0,-0.8,1094.3936,253.6116)"/>
<path style="fill-rule:nonzero;fill:rgb(0%,0%,0%);fill-opacity:1;stroke-width:1.19553;stroke-linecap:butt;stroke-linejoin:miter;stroke:rgb(0%,0%,0%);stroke-opacity:1;stroke-miterlimit:10;" d="M 422.086438 -251.127344 L 414.117688 -251.127344 L 414.117688 -259.1 L 422.086438 -259.1 Z M 422.086438 -251.127344 " transform="matrix(1,0,0,-1,630.312,37.4)"/>
<path style="fill:none;stroke-width:1.19553;stroke-linecap:butt;stroke-linejoin:miter;stroke:rgb(0%,0%,0%);stroke-opacity:1;stroke-miterlimit:10;" d="M 445.387219 -233.291406 L 422.566906 -251.545313 " transform="matrix(1,0,0,-1,630.312,37.4)"/>
<path style="fill-rule:nonzero;fill:rgb(0%,0%,0%);fill-opacity:1;stroke-width:1.19553;stroke-linecap:butt;stroke-linejoin:miter;stroke:rgb(0%,0%,0%);stroke-opacity:1;stroke-miterlimit:10;" d="M 498.930188 -255.115625 C 498.930188 -249.611719 494.46925 -245.150781 488.96925 -245.150781 C 483.465344 -245.150781 479.004406 -249.611719 479.004406 -255.115625 C 479.004406 -260.615625 483.465344 -265.076563 488.96925 -265.076563 C 494.46925 -265.076563 498.930188 -260.615625 498.930188 -255.115625 Z M 498.930188 -255.115625 " transform="matrix(1,0,0,-1,630.312,37.4)"/>
<path style="fill:none;stroke-width:1.19553;stroke-linecap:butt;stroke-linejoin:miter;stroke:rgb(0%,0%,0%);stroke-opacity:1;stroke-miterlimit:10;" d="M 461.695813 -233.295313 L 480.816906 -248.592188 " transform="matrix(1,0,0,-1,630.312,37.4)"/>
<path style="fill-rule:nonzero;fill:rgb(0%,0%,0%);fill-opacity:1;stroke-width:1.19553;stroke-linecap:butt;stroke-linejoin:miter;stroke:rgb(0%,0%,0%);stroke-opacity:1;stroke-miterlimit:10;" d="M 475.234875 -279.475 L 467.266125 -279.475 L 467.266125 -287.44375 L 475.234875 -287.44375 Z M 475.234875 -279.475 " transform="matrix(1,0,0,-1,630.312,37.4)"/>
<path style="fill:none;stroke-width:1.19553;stroke-linecap:butt;stroke-linejoin:miter;stroke:rgb(0%,0%,0%);stroke-opacity:1;stroke-miterlimit:10;" d="M 483.434094 -263.967188 L 474.039563 -278.998438 " transform="matrix(1,0,0,-1,630.312,37.4)"/>
<path style="fill-rule:nonzero;fill:rgb(0%,0%,0%);fill-opacity:1;stroke-width:1.19553;stroke-linecap:butt;stroke-linejoin:miter;stroke:rgb(0%,0%,0%);stroke-opacity:1;stroke-miterlimit:10;" d="M 516.648938 -283.459375 C 516.648938 -277.959375 512.188 -273.498438 506.684094 -273.498438 C 501.184094 -273.498438 496.723156 -277.959375 496.723156 -283.459375 C 496.723156 -288.963281 501.184094 -293.424219 506.684094 -293.424219 C 512.188 -293.424219 516.648938 -288.963281 516.648938 -283.459375 Z M 516.648938 -283.459375 " transform="matrix(1,0,0,-1,630.312,37.4)"/>
<path style="fill:none;stroke-width:1.19553;stroke-linecap:butt;stroke-linejoin:miter;stroke:rgb(0%,0%,0%);stroke-opacity:1;stroke-miterlimit:10;" d="M 494.5005 -263.967188 L 501.152844 -274.607813 " transform="matrix(1,0,0,-1,630.312,37.4)"/>
<path style="fill-rule:nonzero;fill:rgb(0%,0%,0%);fill-opacity:1;stroke-width:1.19553;stroke-linecap:butt;stroke-linejoin:miter;stroke:rgb(0%,0%,0%);stroke-opacity:1;stroke-miterlimit:10;" d="M 498.859875 -307.822656 L 490.887219 -307.822656 L 490.887219 -315.791406 L 498.859875 -315.791406 Z M 498.859875 -307.822656 " transform="matrix(1,0,0,-1,630.312,37.4)"/>
<path style="fill:none;stroke-width:1.19553;stroke-linecap:butt;stroke-linejoin:miter;stroke:rgb(0%,0%,0%);stroke-opacity:1;stroke-miterlimit:10;" d="M 502.668469 -293.096094 L 496.730969 -307.342188 " transform="matrix(1,0,0,-1,630.312,37.4)"/>
<path style="fill-rule:nonzero;fill:rgb(0%,0%,0%);fill-opacity:1;stroke-width:1.19553;stroke-linecap:butt;stroke-linejoin:miter;stroke:rgb(0%,0%,0%);stroke-opacity:1;stroke-miterlimit:10;" d="M 522.480969 -307.822656 L 514.512219 -307.822656 L 514.512219 -315.791406 L 522.480969 -315.791406 Z M 522.480969 -307.822656 " transform="matrix(1,0,0,-1,630.312,37.4)"/>
<path style="fill:none;stroke-width:1.19553;stroke-linecap:butt;stroke-linejoin:miter;stroke:rgb(0%,0%,0%);stroke-opacity:1;stroke-miterlimit:10;" d="M 510.699719 -293.096094 L 516.637219 -307.342188 " transform="matrix(1,0,0,-1,630.312,37.4)"/>
<path style="fill-rule:nonzero;fill:rgb(0%,0%,0%);fill-opacity:1;stroke-width:1.19553;stroke-linecap:butt;stroke-linejoin:miter;stroke:rgb(0%,0%,0%);stroke-opacity:1;stroke-miterlimit:10;" d="M 576.891125 -368.502344 C 576.891125 -363.002344 572.430188 -358.541406 566.926281 -358.541406 C 561.426281 -358.541406 556.965344 -363.002344 556.965344 -368.502344 C 556.965344 -374.00625 561.426281 -378.467188 566.926281 -378.467188 C 572.430188 -378.467188 576.891125 -374.00625 576.891125 -368.502344 Z M 576.891125 -368.502344 " transform="matrix(1,0,0,-1,630.312,37.4)"/>
<path style="fill:none;stroke-width:0.88535;stroke-linecap:butt;stroke-linejoin:miter;stroke:rgb(92.156982%,4.705811%,0%);stroke-opacity:1;stroke-miterlimit:10;" d="M 0.00117969 -0.000304688 L 6.197469 6.195984 M 0.00117969 6.195984 L 6.197469 -0.000304688 " transform="matrix(0.8,0,0,-0.8,1207.7764,395.3396)"/>
<path style="fill-rule:nonzero;fill:rgb(92.156982%,4.705811%,0%);fill-opacity:1;stroke-width:1.19553;stroke-linecap:butt;stroke-linejoin:miter;stroke:rgb(0%,0%,0%);stroke-opacity:1;stroke-miterlimit:10;" d="M 541.449719 -396.842188 C 541.449719 -391.342188 536.988781 -386.88125 531.484875 -386.88125 C 525.984875 -386.88125 521.523938 -391.342188 521.523938 -396.842188 C 521.523938 -402.346094 525.984875 -406.807031 531.484875 -406.807031 C 536.988781 -406.807031 541.449719 -402.346094 541.449719 -396.842188 Z M 541.449719 -396.842188 " transform="matrix(1,0,0,-1,630.312,37.4)"/>
<path style="fill:none;stroke-width:1.19553;stroke-linecap:butt;stroke-linejoin:miter;stroke:rgb(0%,0%,0%);stroke-opacity:1;stroke-miterlimit:10;" d="M 558.773938 -375.021875 L 539.641125 -390.322656 " transform="matrix(1,0,0,-1,630.312,37.4)"/>
<path style="fill-rule:nonzero;fill:rgb(0%,0%,0%);fill-opacity:1;stroke-width:1.19553;stroke-linecap:butt;stroke-linejoin:miter;stroke:rgb(0%,0%,0%);stroke-opacity:1;stroke-miterlimit:10;" d="M 517.754406 -421.205469 L 509.785656 -421.205469 L 509.785656 -429.174219 L 517.754406 -429.174219 Z M 517.754406 -421.205469 " transform="matrix(1,0,0,-1,630.312,37.4)"/>
<path style="fill:none;stroke-width:1.19553;stroke-linecap:butt;stroke-linejoin:miter;stroke:rgb(0%,0%,0%);stroke-opacity:1;stroke-miterlimit:10;" d="M 525.953625 -405.697656 L 516.559094 -420.725 " transform="matrix(1,0,0,-1,630.312,37.4)"/>
<path style="fill-rule:nonzero;fill:rgb(0%,0%,0%);fill-opacity:1;stroke-width:1.19553;stroke-linecap:butt;stroke-linejoin:miter;stroke:rgb(0%,0%,0%);stroke-opacity:1;stroke-miterlimit:10;" d="M 553.188 -421.205469 L 545.215344 -421.205469 L 545.215344 -429.174219 L 553.188 -429.174219 Z M 553.188 -421.205469 " transform="matrix(1,0,0,-1,630.312,37.4)"/>
<path style="fill:none;stroke-width:1.19553;stroke-linecap:butt;stroke-linejoin:miter;stroke:rgb(0%,0%,0%);stroke-opacity:1;stroke-miterlimit:10;" d="M 537.020031 -405.697656 L 546.414563 -420.725 " transform="matrix(1,0,0,-1,630.312,37.4)"/>
<path style="fill-rule:nonzero;fill:rgb(0%,0%,0%);fill-opacity:1;stroke-width:1.19553;stroke-linecap:butt;stroke-linejoin:miter;stroke:rgb(0%,0%,0%);stroke-opacity:1;stroke-miterlimit:10;" d="M 612.313 -396.842188 C 612.313 -391.342188 607.855969 -386.88125 602.352063 -386.88125 C 596.848156 -386.88125 592.387219 -391.342188 592.387219 -396.842188 C 592.387219 -402.346094 596.848156 -406.807031 602.352063 -406.807031 C 607.855969 -406.807031 612.313 -402.346094 612.313 -396.842188 Z M 612.313 -396.842188 " transform="matrix(1,0,0,-1,630.312,37.4)"/>
<path style="fill:none;stroke-width:1.19553;stroke-linecap:butt;stroke-linejoin:miter;stroke:rgb(0%,0%,0%);stroke-opacity:1;stroke-miterlimit:10;" d="M 575.078625 -375.025781 L 594.199719 -390.322656 " transform="matrix(1,0,0,-1,630.312,37.4)"/>
<path style="fill-rule:nonzero;fill:rgb(0%,0%,0%);fill-opacity:1;stroke-width:1.19553;stroke-linecap:butt;stroke-linejoin:miter;stroke:rgb(0%,0%,0%);stroke-opacity:1;stroke-miterlimit:10;" d="M 588.621594 -421.205469 L 580.648938 -421.205469 L 580.648938 -429.174219 L 588.621594 -429.174219 Z M 588.621594 -421.205469 " transform="matrix(1,0,0,-1,630.312,37.4)"/>
<path style="fill:none;stroke-width:1.19553;stroke-linecap:butt;stroke-linejoin:miter;stroke:rgb(0%,0%,0%);stroke-opacity:1;stroke-miterlimit:10;" d="M 596.816906 -405.697656 L 587.422375 -420.725 " transform="matrix(1,0,0,-1,630.312,37.4)"/>
<path style=" stroke:none;fill-rule:nonzero;fill:rgb(0%,0%,0%);fill-opacity:1;" d="M 1260.34375 462.589844 C 1260.34375 457.085938 1255.882812 452.628906 1250.378906 452.628906 C 1244.878906 452.628906 1240.417969 457.085938 1240.417969 462.589844 C 1240.417969 468.09375 1244.878906 472.554688 1250.378906 472.554688 C 1255.882812 472.554688 1260.34375 468.09375 1260.34375 462.589844 Z M 1260.34375 462.589844 "/>
<g clip-path="url(#clip1)" clip-rule="nonzero">
<path style="fill:none;stroke-width:1.19553;stroke-linecap:butt;stroke-linejoin:miter;stroke:rgb(0%,0%,0%);stroke-opacity:1;stroke-miterlimit:10;" d="M 630.03175 -425.189844 C 630.03175 -419.685938 625.570813 -415.228906 620.066906 -415.228906 C 614.566906 -415.228906 610.105969 -419.685938 610.105969 -425.189844 C 610.105969 -430.69375 614.566906 -435.154688 620.066906 -435.154688 C 625.570813 -435.154688 630.03175 -430.69375 630.03175 -425.189844 Z M 630.03175 -425.189844 " transform="matrix(1,0,0,-1,630.312,37.4)"/>
</g>
<path style="fill:none;stroke-width:1.19553;stroke-linecap:butt;stroke-linejoin:miter;stroke:rgb(0%,0%,0%);stroke-opacity:1;stroke-miterlimit:10;" d="M 607.887219 -405.697656 L 614.535656 -416.334375 " transform="matrix(1,0,0,-1,630.312,37.4)"/>
<path style="fill-rule:nonzero;fill:rgb(0%,0%,0%);fill-opacity:1;stroke-width:1.19553;stroke-linecap:butt;stroke-linejoin:miter;stroke:rgb(0%,0%,0%);stroke-opacity:1;stroke-miterlimit:10;" d="M 612.242688 -449.553125 L 604.273938 -449.553125 L 604.273938 -457.521875 L 612.242688 -457.521875 Z M 612.242688 -449.553125 " transform="matrix(1,0,0,-1,630.312,37.4)"/>
<path style="fill:none;stroke-width:1.19553;stroke-linecap:butt;stroke-linejoin:miter;stroke:rgb(0%,0%,0%);stroke-opacity:1;stroke-miterlimit:10;" d="M 616.051281 -434.826563 L 610.117688 -449.072656 " transform="matrix(1,0,0,-1,630.312,37.4)"/>
<path style="fill-rule:nonzero;fill:rgb(0%,0%,0%);fill-opacity:1;stroke-width:1.19553;stroke-linecap:butt;stroke-linejoin:miter;stroke:rgb(0%,0%,0%);stroke-opacity:1;stroke-miterlimit:10;" d="M 635.863781 -449.553125 L 627.895031 -449.553125 L 627.895031 -457.521875 L 635.863781 -457.521875 Z M 635.863781 -449.553125 " transform="matrix(1,0,0,-1,630.312,37.4)"/>
<g clip-path="url(#clip2)" clip-rule="nonzero">
<path style="fill:none;stroke-width:1.19553;stroke-linecap:butt;stroke-linejoin:miter;stroke:rgb(0%,0%,0%);stroke-opacity:1;stroke-miterlimit:10;" d="M 624.082531 -434.826563 L 630.020031 -449.072656 " transform="matrix(1,0,0,-1,630.312,37.4)"/>
</g>
<path style="fill-rule:nonzero;fill:rgb(0%,0%,0%);fill-opacity:1;stroke-width:1.19553;stroke-linecap:butt;stroke-linejoin:miter;stroke:rgb(0%,0%,0%);stroke-opacity:1;stroke-miterlimit:10;" d="M -556.964344 -368.502344 C -556.964344 -363.002344 -561.425281 -358.541406 -566.929187 -358.541406 C -572.429187 -358.541406 -576.890125 -363.002344 -576.890125 -368.502344 C -576.890125 -374.00625 -572.429187 -378.467188 -566.929187 -378.467188 C -561.425281 -378.467188 -556.964344 -374.00625 -556.964344 -368.502344 Z M -556.964344 -368.502344 " transform="matrix(1,0,0,-1,630.312,37.4)"/>
<path style="fill:none;stroke-width:0.88535;stroke-linecap:butt;stroke-linejoin:miter;stroke:rgb(92.156982%,4.705811%,0%);stroke-opacity:1;stroke-miterlimit:10;" d="M -0.00034375 -0.000304688 L 6.195945 6.195984 M -0.00034375 6.195984 L 6.195945 -0.000304688 " transform="matrix(0.8,0,0,-0.8,73.9534,395.3396)"/>
<path style="fill-rule:nonzero;fill:rgb(92.156982%,4.705811%,0%);fill-opacity:1;stroke-width:1.19553;stroke-linecap:butt;stroke-linejoin:miter;stroke:rgb(0%,0%,0%);stroke-opacity:1;stroke-miterlimit:10;" d="M -592.390125 -396.842188 C -592.390125 -391.342188 -596.851062 -386.88125 -602.351062 -386.88125 C -607.854969 -386.88125 -612.315906 -391.342188 -612.315906 -396.842188 C -612.315906 -402.346094 -607.854969 -406.807031 -602.351062 -406.807031 C -596.851062 -406.807031 -592.390125 -402.346094 -592.390125 -396.842188 Z M -592.390125 -396.842188 " transform="matrix(1,0,0,-1,630.312,37.4)"/>
<path style="fill:none;stroke-width:1.19553;stroke-linecap:butt;stroke-linejoin:miter;stroke:rgb(0%,0%,0%);stroke-opacity:1;stroke-miterlimit:10;" d="M -575.081531 -375.025781 L -594.198719 -390.322656 " transform="matrix(1,0,0,-1,630.312,37.4)"/>
<path style="fill-rule:nonzero;fill:rgb(0%,0%,0%);fill-opacity:1;stroke-width:1.19553;stroke-linecap:butt;stroke-linejoin:miter;stroke:rgb(0%,0%,0%);stroke-opacity:1;stroke-miterlimit:10;" d="M -616.081531 -421.205469 L -624.054187 -421.205469 L -624.054187 -429.174219 L -616.081531 -429.174219 Z M -616.081531 -421.205469 " transform="matrix(1,0,0,-1,630.312,37.4)"/>
<path style="fill:none;stroke-width:1.19553;stroke-linecap:butt;stroke-linejoin:miter;stroke:rgb(0%,0%,0%);stroke-opacity:1;stroke-miterlimit:10;" d="M -607.886219 -405.697656 L -617.28075 -420.725 " transform="matrix(1,0,0,-1,630.312,37.4)"/>
<path style="fill-rule:nonzero;fill:rgb(0%,0%,0%);fill-opacity:1;stroke-width:1.19553;stroke-linecap:butt;stroke-linejoin:miter;stroke:rgb(0%,0%,0%);stroke-opacity:1;stroke-miterlimit:10;" d="M -574.671375 -425.189844 C -574.671375 -419.685938 -579.132312 -415.228906 -584.636219 -415.228906 C -590.136219 -415.228906 -594.597156 -419.685938 -594.597156 -425.189844 C -594.597156 -430.69375 -590.136219 -435.154688 -584.636219 -435.154688 C -579.132312 -435.154688 -574.671375 -430.69375 -574.671375 -425.189844 Z M -574.671375 -425.189844 " transform="matrix(1,0,0,-1,630.312,37.4)"/>
<path style="fill:none;stroke-width:1.19553;stroke-linecap:butt;stroke-linejoin:miter;stroke:rgb(0%,0%,0%);stroke-opacity:1;stroke-miterlimit:10;" d="M -596.819812 -405.697656 L -590.167469 -416.334375 " transform="matrix(1,0,0,-1,630.312,37.4)"/>
<path style="fill-rule:nonzero;fill:rgb(0%,0%,0%);fill-opacity:1;stroke-width:1.19553;stroke-linecap:butt;stroke-linejoin:miter;stroke:rgb(0%,0%,0%);stroke-opacity:1;stroke-miterlimit:10;" d="M -592.460437 -449.553125 L -600.433094 -449.553125 L -600.433094 -457.521875 L -592.460437 -457.521875 Z M -592.460437 -449.553125 " transform="matrix(1,0,0,-1,630.312,37.4)"/>
<path style="fill:none;stroke-width:1.19553;stroke-linecap:butt;stroke-linejoin:miter;stroke:rgb(0%,0%,0%);stroke-opacity:1;stroke-miterlimit:10;" d="M -588.651844 -434.826563 L -594.585437 -449.072656 " transform="matrix(1,0,0,-1,630.312,37.4)"/>
<path style="fill-rule:nonzero;fill:rgb(0%,0%,0%);fill-opacity:1;stroke-width:1.19553;stroke-linecap:butt;stroke-linejoin:miter;stroke:rgb(0%,0%,0%);stroke-opacity:1;stroke-miterlimit:10;" d="M -568.839344 -449.553125 L -576.808094 -449.553125 L -576.808094 -457.521875 L -568.839344 -457.521875 Z M -568.839344 -449.553125 " transform="matrix(1,0,0,-1,630.312,37.4)"/>
<path style="fill:none;stroke-width:1.19553;stroke-linecap:butt;stroke-linejoin:miter;stroke:rgb(0%,0%,0%);stroke-opacity:1;stroke-miterlimit:10;" d="M -580.620594 -434.826563 L -574.683094 -449.072656 " transform="matrix(1,0,0,-1,630.312,37.4)"/>
<path style="fill-rule:nonzero;fill:rgb(0%,0%,0%);fill-opacity:1;stroke-width:1.19553;stroke-linecap:butt;stroke-linejoin:miter;stroke:rgb(0%,0%,0%);stroke-opacity:1;stroke-miterlimit:10;" d="M -521.522937 -396.842188 C -521.522937 -391.342188 -525.983875 -386.88125 -531.487781 -386.88125 C -536.987781 -386.88125 -541.448719 -391.342188 -541.448719 -396.842188 C -541.448719 -402.346094 -536.987781 -406.807031 -531.487781 -406.807031 C -525.983875 -406.807031 -521.522937 -402.346094 -521.522937 -396.842188 Z M -521.522937 -396.842188 " transform="matrix(1,0,0,-1,630.312,37.4)"/>
<path style="fill:none;stroke-width:1.19553;stroke-linecap:butt;stroke-linejoin:miter;stroke:rgb(0%,0%,0%);stroke-opacity:1;stroke-miterlimit:10;" d="M -558.772937 -375.021875 L -539.640125 -390.322656 " transform="matrix(1,0,0,-1,630.312,37.4)"/>
<path style="fill-rule:nonzero;fill:rgb(0%,0%,0%);fill-opacity:1;stroke-width:1.19553;stroke-linecap:butt;stroke-linejoin:miter;stroke:rgb(0%,0%,0%);stroke-opacity:1;stroke-miterlimit:10;" d="M -545.21825 -421.205469 L -553.187 -421.205469 L -553.187 -429.174219 L -545.21825 -429.174219 Z M -545.21825 -421.205469 " transform="matrix(1,0,0,-1,630.312,37.4)"/>
<path style="fill:none;stroke-width:1.19553;stroke-linecap:butt;stroke-linejoin:miter;stroke:rgb(0%,0%,0%);stroke-opacity:1;stroke-miterlimit:10;" d="M -537.019031 -405.697656 L -546.413562 -420.725 " transform="matrix(1,0,0,-1,630.312,37.4)"/>
<path style="fill-rule:nonzero;fill:rgb(0%,0%,0%);fill-opacity:1;stroke-width:1.19553;stroke-linecap:butt;stroke-linejoin:miter;stroke:rgb(0%,0%,0%);stroke-opacity:1;stroke-miterlimit:10;" d="M -503.808094 -425.189844 C -503.808094 -419.685938 -508.265125 -415.228906 -513.769031 -415.228906 C -519.272937 -415.228906 -523.733875 -419.685938 -523.733875 -425.189844 C -523.733875 -430.69375 -519.272937 -435.154688 -513.769031 -435.154688 C -508.265125 -435.154688 -503.808094 -430.69375 -503.808094 -425.189844 Z M -503.808094 -425.189844 " transform="matrix(1,0,0,-1,630.312,37.4)"/>
<path style="fill:none;stroke-width:1.19553;stroke-linecap:butt;stroke-linejoin:miter;stroke:rgb(0%,0%,0%);stroke-opacity:1;stroke-miterlimit:10;" d="M -525.952625 -405.697656 L -519.304187 -416.334375 " transform="matrix(1,0,0,-1,630.312,37.4)"/>
<path style="fill-rule:nonzero;fill:rgb(0%,0%,0%);fill-opacity:1;stroke-width:1.19553;stroke-linecap:butt;stroke-linejoin:miter;stroke:rgb(0%,0%,0%);stroke-opacity:1;stroke-miterlimit:10;" d="M -521.59325 -449.553125 L -529.565906 -449.553125 L -529.565906 -457.521875 L -521.59325 -457.521875 Z M -521.59325 -449.553125 " transform="matrix(1,0,0,-1,630.312,37.4)"/>
<path style="fill:none;stroke-width:1.19553;stroke-linecap:butt;stroke-linejoin:miter;stroke:rgb(0%,0%,0%);stroke-opacity:1;stroke-miterlimit:10;" d="M -517.784656 -434.826563 L -523.722156 -449.072656 " transform="matrix(1,0,0,-1,630.312,37.4)"/>
<path style="fill-rule:nonzero;fill:rgb(0%,0%,0%);fill-opacity:1;stroke-width:1.19553;stroke-linecap:butt;stroke-linejoin:miter;stroke:rgb(0%,0%,0%);stroke-opacity:1;stroke-miterlimit:10;" d="M -497.972156 -449.553125 L -505.944812 -449.553125 L -505.944812 -457.521875 L -497.972156 -457.521875 Z M -497.972156 -449.553125 " transform="matrix(1,0,0,-1,630.312,37.4)"/>
<path style="fill:none;stroke-width:1.19553;stroke-linecap:butt;stroke-linejoin:miter;stroke:rgb(0%,0%,0%);stroke-opacity:1;stroke-miterlimit:10;" d="M -509.753406 -434.826563 L -503.815906 -449.072656 " transform="matrix(1,0,0,-1,630.312,37.4)"/>
<path style="fill-rule:nonzero;fill:rgb(92.156982%,4.705811%,0%);fill-opacity:0.2;stroke-width:1.19553;stroke-linecap:butt;stroke-linejoin:miter;stroke:rgb(0%,0%,0%);stroke-opacity:1;stroke-miterlimit:10;" d="M -472.538562 -476.353906 L -547.929187 -476.353906 L -547.929187 -487.424219 L -472.538562 -487.424219 Z M -472.538562 -476.353906 " transform="matrix(1,0,0,-1,630.312,37.4)"/>
<g style="fill:rgb(0%,0%,0%);fill-opacity:1;">
  <use xlink:href="#glyph0-1" x="85.046" y="522.16"/>
  <use xlink:href="#glyph0-2" x="87.259291" y="522.16"/>
  <use xlink:href="#glyph0-3" x="91.375838" y="522.16"/>
  <use xlink:href="#glyph0-4" x="95.050044" y="522.16"/>
  <use xlink:href="#glyph0-5" x="98.878871" y="522.16"/>
  <use xlink:href="#glyph0-6" x="100.782126" y="522.16"/>
  <use xlink:href="#glyph0-7" x="102.685381" y="522.16"/>
</g>
<g style="fill:rgb(0%,0%,0%);fill-opacity:1;">
  <use xlink:href="#glyph0-8" x="109.455964" y="522.16"/>
  <use xlink:href="#glyph0-9" x="112.178543" y="522.16"/>
  <use xlink:href="#glyph0-7" x="115.71965" y="522.16"/>
  <use xlink:href="#glyph0-10" x="119.836196" y="522.16"/>
  <use xlink:href="#glyph0-11" x="122.492624" y="522.16"/>
  <use xlink:href="#glyph0-5" x="126.60917" y="522.16"/>
</g>
<g style="fill:rgb(0%,0%,0%);fill-opacity:1;">
  <use xlink:href="#glyph0-4" x="128.520395" y="522.16"/>
  <use xlink:href="#glyph0-12" x="132.349222" y="522.16"/>
  <use xlink:href="#glyph0-13" x="135.890328" y="522.16"/>
</g>
<g style="fill:rgb(0%,0%,0%);fill-opacity:1;">
  <use xlink:href="#glyph0-14" x="142.44014" y="522.16"/>
  <use xlink:href="#glyph0-8" x="145.317339" y="522.16"/>
  <use xlink:href="#glyph0-9" x="148.039918" y="522.16"/>
  <use xlink:href="#glyph0-9" x="151.581025" y="522.16"/>
</g>
<path style="fill-rule:nonzero;fill:rgb(9.020996%,52.157593%,92.156982%);fill-opacity:0.2;stroke-width:1.19553;stroke-linecap:butt;stroke-linejoin:miter;stroke:rgb(0%,0%,0%);stroke-opacity:1;stroke-miterlimit:10;" d="M 375.395031 -51.158594 L 304.918469 -51.158594 L 304.918469 -62.225 L 375.395031 -62.225 Z M 375.395031 -51.158594 " transform="matrix(1,0,0,-1,630.312,37.4)"/>
<g style="fill:rgb(0%,0%,0%);fill-opacity:1;">
  <use xlink:href="#glyph0-15" x="937.883" y="96.969"/>
</g>
<g style="fill:rgb(0%,0%,0%);fill-opacity:1;">
  <use xlink:href="#glyph0-4" x="942.971896" y="96.969"/>
  <use xlink:href="#glyph0-5" x="946.800723" y="96.969"/>
  <use xlink:href="#glyph0-6" x="948.703978" y="96.969"/>
  <use xlink:href="#glyph0-7" x="950.607233" y="96.969"/>
</g>
<g style="fill:rgb(0%,0%,0%);fill-opacity:1;">
  <use xlink:href="#glyph0-8" x="957.385786" y="96.969"/>
  <use xlink:href="#glyph0-9" x="960.108365" y="96.969"/>
  <use xlink:href="#glyph0-7" x="963.649472" y="96.969"/>
  <use xlink:href="#glyph0-10" x="967.766018" y="96.969"/>
  <use xlink:href="#glyph0-11" x="970.422446" y="96.969"/>
  <use xlink:href="#glyph0-5" x="974.538992" y="96.969"/>
  <use xlink:href="#glyph0-4" x="976.442247" y="96.969"/>
  <use xlink:href="#glyph0-12" x="980.271073" y="96.969"/>
  <use xlink:href="#glyph0-13" x="983.81218" y="96.969"/>
</g>
<g style="fill:rgb(0%,0%,0%);fill-opacity:1;">
  <use xlink:href="#glyph0-14" x="990.361992" y="96.969"/>
  <use xlink:href="#glyph0-8" x="993.239191" y="96.969"/>
  <use xlink:href="#glyph0-9" x="995.96177" y="96.969"/>
  <use xlink:href="#glyph0-9" x="999.502877" y="96.969"/>
</g>
<path style="fill-rule:nonzero;fill:rgb(0%,0%,0%);fill-opacity:1;stroke-width:1.19553;stroke-linecap:butt;stroke-linejoin:miter;stroke:rgb(0%,0%,0%);stroke-opacity:1;stroke-miterlimit:10;" d="M 31.133313 0.0015625 C 31.133313 17.192969 17.195813 31.134375 0.0005 31.134375 C -17.194812 31.134375 -31.132312 17.192969 -31.132312 0.0015625 C -31.132312 -17.19375 -17.194812 -31.135156 0.0005 -31.135156 C 17.195813 -31.135156 31.133313 -17.19375 31.133313 0.0015625 Z M 31.133313 0.0015625 " transform="matrix(1,0,0,-1,630.312,37.4)"/>
<path style="fill-rule:nonzero;fill:rgb(92.156982%,4.705811%,0%);fill-opacity:1;stroke-width:1.19553;stroke-linecap:butt;stroke-linejoin:miter;stroke:rgb(0%,0%,0%);stroke-opacity:1;stroke-miterlimit:10;" d="M -146.034656 -141.732813 C -146.034656 -124.5375 -159.972156 -110.6 -177.167469 -110.6 C -194.362781 -110.6 -208.300281 -124.5375 -208.300281 -141.732813 C -208.300281 -158.928125 -194.362781 -172.869531 -177.167469 -172.869531 C -159.972156 -172.869531 -146.034656 -158.928125 -146.034656 -141.732813 Z M -146.034656 -141.732813 " transform="matrix(1,0,0,-1,630.312,37.4)"/>
<path style="fill:none;stroke-width:1.19553;stroke-linecap:butt;stroke-linejoin:miter;stroke:rgb(0%,0%,0%);stroke-opacity:1;stroke-miterlimit:10;" d="M -25.444812 -20.353906 L -151.687 -121.35 " transform="matrix(1,0,0,-1,630.312,37.4)"/>
<path style="fill-rule:nonzero;fill:rgb(0%,0%,0%);fill-opacity:1;stroke-width:1.19553;stroke-linecap:butt;stroke-linejoin:miter;stroke:rgb(0%,0%,0%);stroke-opacity:1;stroke-miterlimit:10;" d="M -234.616687 -283.467188 C -234.616687 -266.271875 -248.558094 -252.334375 -265.7495 -252.334375 C -282.944812 -252.334375 -296.886219 -266.271875 -296.886219 -283.467188 C -296.886219 -300.6625 -282.944812 -314.6 -265.7495 -314.6 C -248.558094 -314.6 -234.616687 -300.6625 -234.616687 -283.467188 Z M -234.616687 -283.467188 " transform="matrix(1,0,0,-1,630.312,37.4)"/>
<path style="fill:none;stroke-width:1.19553;stroke-linecap:butt;stroke-linejoin:miter;stroke:rgb(0%,0%,0%);stroke-opacity:1;stroke-miterlimit:10;" d="M -194.444812 -169.377344 L -248.456531 -255.795313 " transform="matrix(1,0,0,-1,630.312,37.4)"/>
<path style="fill-rule:nonzero;fill:rgb(0%,0%,0%);fill-opacity:1;stroke-width:1.19553;stroke-linecap:butt;stroke-linejoin:miter;stroke:rgb(0%,0%,0%);stroke-opacity:1;stroke-miterlimit:10;" d="M -312.354969 -412.748438 L -337.261219 -412.748438 L -337.261219 -437.654688 L -312.354969 -437.654688 Z M -312.354969 -412.748438 " transform="matrix(1,0,0,-1,630.312,37.4)"/>
<path style="fill:none;stroke-width:1.19553;stroke-linecap:butt;stroke-linejoin:miter;stroke:rgb(0%,0%,0%);stroke-opacity:1;stroke-miterlimit:10;" d="M -278.288562 -313.560938 L -318.995594 -411.252344 " transform="matrix(1,0,0,-1,630.312,37.4)"/>
<path style="fill-rule:nonzero;fill:rgb(0%,0%,0%);fill-opacity:1;stroke-width:1.19553;stroke-linecap:butt;stroke-linejoin:miter;stroke:rgb(0%,0%,0%);stroke-opacity:1;stroke-miterlimit:10;" d="M -194.241687 -412.748438 L -219.147937 -412.748438 L -219.147937 -437.654688 L -194.241687 -437.654688 Z M -194.241687 -412.748438 " transform="matrix(1,0,0,-1,630.312,37.4)"/>
<path style="fill:none;stroke-width:1.19553;stroke-linecap:butt;stroke-linejoin:miter;stroke:rgb(0%,0%,0%);stroke-opacity:1;stroke-miterlimit:10;" d="M -253.214344 -313.560938 L -212.507312 -411.252344 " transform="matrix(1,0,0,-1,630.312,37.4)"/>
<path style="fill-rule:nonzero;fill:rgb(0%,0%,0%);fill-opacity:1;stroke-width:1.19553;stroke-linecap:butt;stroke-linejoin:miter;stroke:rgb(0%,0%,0%);stroke-opacity:1;stroke-miterlimit:10;" d="M -57.448719 -283.467188 C -57.448719 -266.271875 -71.390125 -252.334375 -88.585437 -252.334375 C -105.776844 -252.334375 -119.71825 -266.271875 -119.71825 -283.467188 C -119.71825 -300.6625 -105.776844 -314.6 -88.585437 -314.6 C -71.390125 -314.6 -57.448719 -300.6625 -57.448719 -283.467188 Z M -57.448719 -283.467188 " transform="matrix(1,0,0,-1,630.312,37.4)"/>
<path style="fill:none;stroke-width:1.19553;stroke-linecap:butt;stroke-linejoin:miter;stroke:rgb(0%,0%,0%);stroke-opacity:1;stroke-miterlimit:10;" d="M -159.890125 -169.377344 L -105.878406 -255.795313 " transform="matrix(1,0,0,-1,630.312,37.4)"/>
<path style="fill-rule:nonzero;fill:rgb(92.156982%,4.705811%,0%);fill-opacity:1;stroke-width:1.19553;stroke-linecap:butt;stroke-linejoin:miter;stroke:rgb(0%,0%,0%);stroke-opacity:1;stroke-miterlimit:10;" d="M -116.507312 -425.201563 C -116.507312 -408.00625 -130.444812 -394.06875 -147.640125 -394.06875 C -164.835437 -394.06875 -178.772937 -408.00625 -178.772937 -425.201563 C -178.772937 -442.396875 -164.835437 -456.334375 -147.640125 -456.334375 C -130.444812 -456.334375 -116.507312 -442.396875 -116.507312 -425.201563 Z M -116.507312 -425.201563 " transform="matrix(1,0,0,-1,630.312,37.4)"/>
<path style="fill:none;stroke-width:1.19553;stroke-linecap:butt;stroke-linejoin:miter;stroke:rgb(0%,0%,0%);stroke-opacity:1;stroke-miterlimit:10;" d="M -101.120594 -313.560938 L -135.089344 -395.080469 " transform="matrix(1,0,0,-1,630.312,37.4)"/>
<path style="fill-rule:nonzero;fill:rgb(0%,0%,0%);fill-opacity:1;stroke-width:1.19553;stroke-linecap:butt;stroke-linejoin:miter;stroke:rgb(0%,0%,0%);stroke-opacity:1;stroke-miterlimit:10;" d="M -179.476062 -554.482813 L -204.386219 -554.482813 L -204.386219 -579.389063 L -179.476062 -579.389063 Z M -179.476062 -554.482813 " transform="matrix(1,0,0,-1,630.312,37.4)"/>
<path style="fill:none;stroke-width:1.19553;stroke-linecap:butt;stroke-linejoin:miter;stroke:rgb(0%,0%,0%);stroke-opacity:1;stroke-miterlimit:10;" d="M -157.362781 -456.31875 L -187.573719 -552.986719 " transform="matrix(1,0,0,-1,630.312,37.4)"/>
<path style="fill-rule:nonzero;fill:rgb(0%,0%,0%);fill-opacity:1;stroke-width:1.19553;stroke-linecap:butt;stroke-linejoin:miter;stroke:rgb(0%,0%,0%);stroke-opacity:1;stroke-miterlimit:10;" d="M -90.894031 -554.482813 L -115.800281 -554.482813 L -115.800281 -579.389063 L -90.894031 -579.389063 Z M -90.894031 -554.482813 " transform="matrix(1,0,0,-1,630.312,37.4)"/>
<path style="fill:none;stroke-width:1.19553;stroke-linecap:butt;stroke-linejoin:miter;stroke:rgb(0%,0%,0%);stroke-opacity:1;stroke-miterlimit:10;" d="M -137.913562 -456.31875 L -107.706531 -552.986719 " transform="matrix(1,0,0,-1,630.312,37.4)"/>
<path style="fill-rule:nonzero;fill:rgb(0%,0%,0%);fill-opacity:1;stroke-width:1.19553;stroke-linecap:butt;stroke-linejoin:miter;stroke:rgb(0%,0%,0%);stroke-opacity:1;stroke-miterlimit:10;" d="M -17.073719 -412.748438 L -41.979969 -412.748438 L -41.979969 -437.654688 L -17.073719 -437.654688 Z M -17.073719 -412.748438 " transform="matrix(1,0,0,-1,630.312,37.4)"/>
<path style="fill:none;stroke-width:1.19553;stroke-linecap:butt;stroke-linejoin:miter;stroke:rgb(0%,0%,0%);stroke-opacity:1;stroke-miterlimit:10;" d="M -76.046375 -313.560938 L -35.339344 -411.252344 " transform="matrix(1,0,0,-1,630.312,37.4)"/>
<path style="fill-rule:nonzero;fill:rgb(92.156982%,4.705811%,0%);fill-opacity:1;stroke-width:1.19553;stroke-linecap:butt;stroke-linejoin:miter;stroke:rgb(0%,0%,0%);stroke-opacity:1;stroke-miterlimit:10;" d="M 208.301281 -141.732813 C 208.301281 -124.5375 194.363781 -110.6 177.168469 -110.6 C 159.973156 -110.6 146.035656 -124.5375 146.035656 -141.732813 C 146.035656 -158.928125 159.973156 -172.869531 177.168469 -172.869531 C 194.363781 -172.869531 208.301281 -158.928125 208.301281 -141.732813 Z M 208.301281 -141.732813 " transform="matrix(1,0,0,-1,630.312,37.4)"/>
<path style="fill:none;stroke-width:1.19553;stroke-linecap:butt;stroke-linejoin:miter;stroke:rgb(0%,0%,0%);stroke-opacity:1;stroke-miterlimit:10;" d="M 25.445813 -20.353906 L 151.684094 -121.35 " transform="matrix(1,0,0,-1,630.312,37.4)"/>
<path style="fill-rule:nonzero;fill:rgb(0%,0%,0%);fill-opacity:1;stroke-width:1.19553;stroke-linecap:butt;stroke-linejoin:miter;stroke:rgb(0%,0%,0%);stroke-opacity:1;stroke-miterlimit:10;" d="M 119.71925 -283.467188 C 119.71925 -266.271875 105.777844 -252.334375 88.582531 -252.334375 C 71.387219 -252.334375 57.449719 -266.271875 57.449719 -283.467188 C 57.449719 -300.6625 71.387219 -314.6 88.582531 -314.6 C 105.777844 -314.6 119.71925 -300.6625 119.71925 -283.467188 Z M 119.71925 -283.467188 " transform="matrix(1,0,0,-1,630.312,37.4)"/>
<path style="fill:none;stroke-width:1.19553;stroke-linecap:butt;stroke-linejoin:miter;stroke:rgb(0%,0%,0%);stroke-opacity:1;stroke-miterlimit:10;" d="M 159.891125 -169.377344 L 105.879406 -255.795313 " transform="matrix(1,0,0,-1,630.312,37.4)"/>
<path style="fill-rule:nonzero;fill:rgb(0%,0%,0%);fill-opacity:1;stroke-width:1.19553;stroke-linecap:butt;stroke-linejoin:miter;stroke:rgb(0%,0%,0%);stroke-opacity:1;stroke-miterlimit:10;" d="M 41.980969 -412.748438 L 17.074719 -412.748438 L 17.074719 -437.654688 L 41.980969 -437.654688 Z M 41.980969 -412.748438 " transform="matrix(1,0,0,-1,630.312,37.4)"/>
<path style="fill:none;stroke-width:1.19553;stroke-linecap:butt;stroke-linejoin:miter;stroke:rgb(0%,0%,0%);stroke-opacity:1;stroke-miterlimit:10;" d="M 76.047375 -313.560938 L 35.340344 -411.252344 " transform="matrix(1,0,0,-1,630.312,37.4)"/>
<path style="fill-rule:nonzero;fill:rgb(0%,0%,0%);fill-opacity:1;stroke-width:1.19553;stroke-linecap:butt;stroke-linejoin:miter;stroke:rgb(0%,0%,0%);stroke-opacity:1;stroke-miterlimit:10;" d="M 160.09425 -412.748438 L 135.188 -412.748438 L 135.188 -437.654688 L 160.09425 -437.654688 Z M 160.09425 -412.748438 " transform="matrix(1,0,0,-1,630.312,37.4)"/>
<path style="fill:none;stroke-width:1.19553;stroke-linecap:butt;stroke-linejoin:miter;stroke:rgb(0%,0%,0%);stroke-opacity:1;stroke-miterlimit:10;" d="M 101.121594 -313.560938 L 141.828625 -411.252344 " transform="matrix(1,0,0,-1,630.312,37.4)"/>
<path style="fill-rule:nonzero;fill:rgb(0%,0%,0%);fill-opacity:1;stroke-width:1.19553;stroke-linecap:butt;stroke-linejoin:miter;stroke:rgb(0%,0%,0%);stroke-opacity:1;stroke-miterlimit:10;" d="M 296.883313 -283.467188 C 296.883313 -266.271875 282.945813 -252.334375 265.7505 -252.334375 C 248.555188 -252.334375 234.617688 -266.271875 234.617688 -283.467188 C 234.617688 -300.6625 248.555188 -314.6 265.7505 -314.6 C 282.945813 -314.6 296.883313 -300.6625 296.883313 -283.467188 Z M 296.883313 -283.467188 " transform="matrix(1,0,0,-1,630.312,37.4)"/>
<path style="fill:none;stroke-width:1.19553;stroke-linecap:butt;stroke-linejoin:miter;stroke:rgb(0%,0%,0%);stroke-opacity:1;stroke-miterlimit:10;" d="M 194.445813 -169.377344 L 248.457531 -255.795313 " transform="matrix(1,0,0,-1,630.312,37.4)"/>
<path style="fill-rule:nonzero;fill:rgb(92.156982%,4.705811%,0%);fill-opacity:1;stroke-width:1.19553;stroke-linecap:butt;stroke-linejoin:miter;stroke:rgb(0%,0%,0%);stroke-opacity:1;stroke-miterlimit:10;" d="M 237.828625 -425.201563 C 237.828625 -408.00625 223.891125 -394.06875 206.695813 -394.06875 C 189.5005 -394.06875 175.563 -408.00625 175.563 -425.201563 C 175.563 -442.396875 189.5005 -456.334375 206.695813 -456.334375 C 223.891125 -456.334375 237.828625 -442.396875 237.828625 -425.201563 Z M 237.828625 -425.201563 " transform="matrix(1,0,0,-1,630.312,37.4)"/>
<path style="fill:none;stroke-width:1.19553;stroke-linecap:butt;stroke-linejoin:miter;stroke:rgb(0%,0%,0%);stroke-opacity:1;stroke-miterlimit:10;" d="M 253.211438 -313.560938 L 219.246594 -395.080469 " transform="matrix(1,0,0,-1,630.312,37.4)"/>
<path style="fill-rule:nonzero;fill:rgb(0%,0%,0%);fill-opacity:1;stroke-width:1.19553;stroke-linecap:butt;stroke-linejoin:miter;stroke:rgb(0%,0%,0%);stroke-opacity:1;stroke-miterlimit:10;" d="M 174.855969 -554.482813 L 149.949719 -554.482813 L 149.949719 -579.389063 L 174.855969 -579.389063 Z M 174.855969 -554.482813 " transform="matrix(1,0,0,-1,630.312,37.4)"/>
<path style="fill:none;stroke-width:1.19553;stroke-linecap:butt;stroke-linejoin:miter;stroke:rgb(0%,0%,0%);stroke-opacity:1;stroke-miterlimit:10;" d="M 196.973156 -456.31875 L 166.762219 -552.986719 " transform="matrix(1,0,0,-1,630.312,37.4)"/>
<path style="fill-rule:nonzero;fill:rgb(0%,0%,0%);fill-opacity:1;stroke-width:1.19553;stroke-linecap:butt;stroke-linejoin:miter;stroke:rgb(0%,0%,0%);stroke-opacity:1;stroke-miterlimit:10;" d="M 263.441906 -554.482813 L 238.535656 -554.482813 L 238.535656 -579.389063 L 263.441906 -579.389063 Z M 263.441906 -554.482813 " transform="matrix(1,0,0,-1,630.312,37.4)"/>
<path style="fill:none;stroke-width:1.19553;stroke-linecap:butt;stroke-linejoin:miter;stroke:rgb(0%,0%,0%);stroke-opacity:1;stroke-miterlimit:10;" d="M 216.418469 -456.31875 L 246.629406 -552.986719 " transform="matrix(1,0,0,-1,630.312,37.4)"/>
<path style="fill-rule:nonzero;fill:rgb(92.156982%,4.705811%,0%);fill-opacity:1;stroke-width:1.19553;stroke-linecap:butt;stroke-linejoin:miter;stroke:rgb(0%,0%,0%);stroke-opacity:1;stroke-miterlimit:10;" d="M 355.941906 -425.201563 C 355.941906 -408.00625 342.0005 -394.06875 324.809094 -394.06875 C 307.613781 -394.06875 293.672375 -408.00625 293.672375 -425.201563 C 293.672375 -442.396875 307.613781 -456.334375 324.809094 -456.334375 C 342.0005 -456.334375 355.941906 -442.396875 355.941906 -425.201563 Z M 355.941906 -425.201563 " transform="matrix(1,0,0,-1,630.312,37.4)"/>
<path style="fill:none;stroke-width:1.19553;stroke-linecap:butt;stroke-linejoin:miter;stroke:rgb(0%,0%,0%);stroke-opacity:1;stroke-miterlimit:10;" d="M 278.289563 -313.560938 L 312.258313 -395.080469 " transform="matrix(1,0,0,-1,630.312,37.4)"/>
<path style="fill-rule:nonzero;fill:rgb(0%,0%,0%);fill-opacity:1;stroke-width:1.19553;stroke-linecap:butt;stroke-linejoin:miter;stroke:rgb(0%,0%,0%);stroke-opacity:1;stroke-miterlimit:10;" d="M 292.96925 -554.482813 L 268.063 -554.482813 L 268.063 -579.389063 L 292.96925 -579.389063 Z M 292.96925 -554.482813 " transform="matrix(1,0,0,-1,630.312,37.4)"/>
<path style="fill:none;stroke-width:1.19553;stroke-linecap:butt;stroke-linejoin:miter;stroke:rgb(0%,0%,0%);stroke-opacity:1;stroke-miterlimit:10;" d="M 315.082531 -456.31875 L 284.8755 -552.986719 " transform="matrix(1,0,0,-1,630.312,37.4)"/>
<path style="fill-rule:nonzero;fill:rgb(0%,0%,0%);fill-opacity:1;stroke-width:1.19553;stroke-linecap:butt;stroke-linejoin:miter;stroke:rgb(0%,0%,0%);stroke-opacity:1;stroke-miterlimit:10;" d="M 381.551281 -554.482813 L 356.645031 -554.482813 L 356.645031 -579.389063 L 381.551281 -579.389063 Z M 381.551281 -554.482813 " transform="matrix(1,0,0,-1,630.312,37.4)"/>
<path style="fill:none;stroke-width:1.19553;stroke-linecap:butt;stroke-linejoin:miter;stroke:rgb(0%,0%,0%);stroke-opacity:1;stroke-miterlimit:10;" d="M 334.53175 -456.31875 L 364.738781 -552.986719 " transform="matrix(1,0,0,-1,630.312,37.4)"/>
<path style=" stroke:none;fill-rule:nonzero;fill:rgb(72.706604%,85.647583%,97.645569%);fill-opacity:0.2;" d="M 1143.253906 604.335938 C 1143.253906 575.449219 1119.835938 552.03125 1090.949219 552.03125 C 1062.058594 552.03125 1038.644531 575.449219 1038.644531 604.335938 C 1038.644531 633.222656 1062.058594 656.640625 1090.949219 656.640625 C 1119.835938 656.640625 1143.253906 633.222656 1143.253906 604.335938 Z M 1143.253906 604.335938 "/>
<path style="fill-rule:nonzero;fill:rgb(9.020996%,52.157593%,92.156982%);fill-opacity:1;stroke-width:1.19553;stroke-linecap:butt;stroke-linejoin:miter;stroke:rgb(9.020996%,52.157593%,92.156982%);stroke-opacity:1;stroke-miterlimit:10;" d="M 425.203625 -566.935938 L 442.918469 -591.740625 L 496.070813 -542.135156 L 442.918469 -581.111719 Z M 425.203625 -566.935938 " transform="matrix(1,0,0,-1,630.312,37.4)"/>
</g>
</svg>
